EESchema Schematic File Version 2
LIBS:power
LIBS:device
LIBS:switches
LIBS:relays
LIBS:motors
LIBS:transistors
LIBS:conn
LIBS:linear
LIBS:regul
LIBS:74xx
LIBS:cmos4000
LIBS:adc-dac
LIBS:memory
LIBS:xilinx
LIBS:microcontrollers
LIBS:dsp
LIBS:microchip
LIBS:analog_switches
LIBS:motorola
LIBS:texas
LIBS:intel
LIBS:audio
LIBS:interface
LIBS:digital-audio
LIBS:philips
LIBS:display
LIBS:cypress
LIBS:siliconi
LIBS:opto
LIBS:atmel
LIBS:contrib
LIBS:valves
LIBS:ESP8266
LIBS:ESP32-footprints-Shem-Lib
LIBS:Weather-Station-cache
EELAYER 25 0
EELAYER END
$Descr A4 11693 8268
encoding utf-8
Sheet 1 1
Title ""
Date ""
Rev ""
Comp ""
Comment1 ""
Comment2 ""
Comment3 ""
Comment4 ""
$EndDescr
$Comp
L Conn_01x02 J2
U 1 1 5A58EC49
P 700 1600
F 0 "J2" H 700 1700 50  0000 C CNN
F 1 "Power" H 700 1400 50  0000 C CNN
F 2 "TerminalBlock_Phoenix:TerminalBlock_Phoenix_PT-3.5mm_2pol" H 700 1600 50  0001 C CNN
F 3 "" H 700 1600 50  0001 C CNN
	1    700  1600
	-1   0    0    1   
$EndComp
$Comp
L AP1117-33 U1
U 1 1 5A5E4D51
P 3150 1500
F 0 "U1" H 3000 1625 50  0000 C CNN
F 1 "AP1117-33" H 3150 1625 50  0000 L CNN
F 2 "TO_SOT_Packages_SMD:SOT-223" H 3150 1700 50  0001 C CNN
F 3 "" H 3250 1250 50  0001 C CNN
	1    3150 1500
	1    0    0    -1  
$EndComp
$Comp
L GND #PWR01
U 1 1 5A5E8030
P 950 1650
F 0 "#PWR01" H 950 1400 50  0001 C CNN
F 1 "GND" H 950 1500 50  0000 C CNN
F 2 "" H 950 1650 50  0001 C CNN
F 3 "" H 950 1650 50  0001 C CNN
	1    950  1650
	1    0    0    -1  
$EndComp
$Comp
L GND #PWR02
U 1 1 5A5E805E
P 3150 1900
F 0 "#PWR02" H 3150 1650 50  0001 C CNN
F 1 "GND" H 3150 1750 50  0000 C CNN
F 2 "" H 3150 1900 50  0001 C CNN
F 3 "" H 3150 1900 50  0001 C CNN
	1    3150 1900
	1    0    0    -1  
$EndComp
$Comp
L +3.3V #PWR06
U 1 1 5A5EB03C
P 4250 1400
F 0 "#PWR06" H 4250 1250 50  0001 C CNN
F 1 "+3.3V" H 4250 1540 50  0000 C CNN
F 2 "" H 4250 1400 50  0001 C CNN
F 3 "" H 4250 1400 50  0001 C CNN
	1    4250 1400
	1    0    0    -1  
$EndComp
$Comp
L PWR_FLAG #FLG010
U 1 1 5A5EC039
P 4300 1900
F 0 "#FLG010" H 4300 1975 50  0001 C CNN
F 1 "PWR_FLAG" H 4300 2050 50  0000 C CNN
F 2 "" H 4300 1900 50  0001 C CNN
F 3 "" H 4300 1900 50  0001 C CNN
	1    4300 1900
	0    1    1    0   
$EndComp
$Comp
L PWR_FLAG #FLG011
U 1 1 5A5EC134
P 3300 1850
F 0 "#FLG011" H 3300 1925 50  0001 C CNN
F 1 "PWR_FLAG" H 3300 2000 50  0000 C CNN
F 2 "" H 3300 1850 50  0001 C CNN
F 3 "" H 3300 1850 50  0001 C CNN
	1    3300 1850
	0    1    1    0   
$EndComp
$Comp
L R R11
U 1 1 5AE78807
P 5350 4250
F 0 "R11" V 5430 4250 50  0000 C CNN
F 1 "330" V 5350 4250 50  0000 C CNN
F 2 "Resistors_SMD:R_0805" V 5280 4250 50  0001 C CNN
F 3 "" H 5350 4250 50  0001 C CNN
	1    5350 4250
	1    0    0    -1  
$EndComp
$Comp
L LED D3
U 1 1 5AE78936
P 5200 4500
F 0 "D3" H 5200 4600 50  0000 C CNN
F 1 "LED" H 5200 4400 50  0000 C CNN
F 2 "LEDs:LED_0805" H 5200 4500 50  0001 C CNN
F 3 "" H 5200 4500 50  0001 C CNN
	1    5200 4500
	1    0    0    -1  
$EndComp
$Comp
L GND #PWR012
U 1 1 5AE78B79
P 4950 4550
F 0 "#PWR012" H 4950 4300 50  0001 C CNN
F 1 "GND" H 4950 4400 50  0000 C CNN
F 2 "" H 4950 4550 50  0001 C CNN
F 3 "" H 4950 4550 50  0001 C CNN
	1    4950 4550
	1    0    0    -1  
$EndComp
$Comp
L CP1 C3
U 1 1 5AE7CFB1
P 3650 1700
F 0 "C3" H 3675 1800 50  0000 L CNN
F 1 "22μF" H 3675 1600 50  0000 L CNN
F 2 "Capacitors_SMD:CP_Elec_6.3x7.7" H 3650 1700 50  0001 C CNN
F 3 "" H 3650 1700 50  0001 C CNN
	1    3650 1700
	1    0    0    -1  
$EndComp
$Comp
L CP1 C2
U 1 1 5AE7D0CE
P 2750 1700
F 0 "C2" H 2775 1800 50  0000 L CNN
F 1 "22μF" H 2775 1600 50  0000 L CNN
F 2 "Capacitors_SMD:CP_Elec_6.3x7.7" H 2750 1700 50  0001 C CNN
F 3 "" H 2750 1700 50  0001 C CNN
	1    2750 1700
	1    0    0    -1  
$EndComp
$Comp
L GND #PWR013
U 1 1 5AE7D2C5
P 3650 1850
F 0 "#PWR013" H 3650 1600 50  0001 C CNN
F 1 "GND" H 3650 1700 50  0000 C CNN
F 2 "" H 3650 1850 50  0001 C CNN
F 3 "" H 3650 1850 50  0001 C CNN
	1    3650 1850
	1    0    0    -1  
$EndComp
$Comp
L GND #PWR014
U 1 1 5AE7D30B
P 2750 1850
F 0 "#PWR014" H 2750 1600 50  0001 C CNN
F 1 "GND" H 2750 1700 50  0000 C CNN
F 2 "" H 2750 1850 50  0001 C CNN
F 3 "" H 2750 1850 50  0001 C CNN
	1    2750 1850
	1    0    0    -1  
$EndComp
NoConn ~ 7350 3600
NoConn ~ 5500 3550
$Comp
L Conn_01x08 J3
U 1 1 5B86B0D6
P 10000 1700
F 0 "J3" H 10000 2100 50  0000 C CNN
F 1 "DataLogger" H 10000 1200 50  0000 C CNN
F 2 "Pin_Headers:Pin_Header_Straight_1x08_Pitch2.54mm" H 10000 1700 50  0001 C CNN
F 3 "" H 10000 1700 50  0001 C CNN
	1    10000 1700
	0    -1   -1   0   
$EndComp
$Comp
L GND #PWR015
U 1 1 5B885A22
P 1600 6050
F 0 "#PWR015" H 1600 5800 50  0001 C CNN
F 1 "GND" H 1600 5900 50  0000 C CNN
F 2 "" H 1600 6050 50  0001 C CNN
F 3 "" H 1600 6050 50  0001 C CNN
	1    1600 6050
	1    0    0    -1  
$EndComp
$Comp
L PWR_FLAG #FLG016
U 1 1 5A5EBFFB
P 1000 1500
F 0 "#FLG016" H 1000 1575 50  0001 C CNN
F 1 "PWR_FLAG" H 1000 1650 50  0000 C CNN
F 2 "" H 1000 1500 50  0001 C CNN
F 3 "" H 1000 1500 50  0001 C CNN
	1    1000 1500
	1    0    0    -1  
$EndComp
$Comp
L AP1117-33 U3
U 1 1 5B88A5A9
P 1850 2600
F 0 "U3" H 1700 2725 50  0000 C CNN
F 1 "AP1117-33" H 1850 2725 50  0000 L CNN
F 2 "TO_SOT_Packages_SMD:SOT-223" H 1850 2800 50  0001 C CNN
F 3 "" H 1950 2350 50  0001 C CNN
	1    1850 2600
	1    0    0    -1  
$EndComp
$Comp
L CP1 C4
U 1 1 5B88A6B9
P 1200 2800
F 0 "C4" H 1225 2900 50  0000 L CNN
F 1 "22μF" H 1225 2700 50  0000 L CNN
F 2 "Capacitors_SMD:CP_Elec_6.3x7.7" H 1200 2800 50  0001 C CNN
F 3 "" H 1200 2800 50  0001 C CNN
	1    1200 2800
	1    0    0    -1  
$EndComp
$Comp
L CP1 C5
U 1 1 5B88A726
P 2400 2800
F 0 "C5" H 2425 2900 50  0000 L CNN
F 1 "22μF" H 2425 2700 50  0000 L CNN
F 2 "Capacitors_SMD:CP_Elec_6.3x7.7" H 2400 2800 50  0001 C CNN
F 3 "" H 2400 2800 50  0001 C CNN
	1    2400 2800
	1    0    0    -1  
$EndComp
$Comp
L GND #PWR017
U 1 1 5B88AAAC
P 2400 3050
F 0 "#PWR017" H 2400 2800 50  0001 C CNN
F 1 "GND" H 2400 2900 50  0000 C CNN
F 2 "" H 2400 3050 50  0001 C CNN
F 3 "" H 2400 3050 50  0001 C CNN
	1    2400 3050
	1    0    0    -1  
$EndComp
$Comp
L GND #PWR018
U 1 1 5B88AB06
P 1850 3000
F 0 "#PWR018" H 1850 2750 50  0001 C CNN
F 1 "GND" H 1850 2850 50  0000 C CNN
F 2 "" H 1850 3000 50  0001 C CNN
F 3 "" H 1850 3000 50  0001 C CNN
	1    1850 3000
	1    0    0    -1  
$EndComp
$Comp
L GND #PWR019
U 1 1 5B88AB60
P 1200 3050
F 0 "#PWR019" H 1200 2800 50  0001 C CNN
F 1 "GND" H 1200 2900 50  0000 C CNN
F 2 "" H 1200 3050 50  0001 C CNN
F 3 "" H 1200 3050 50  0001 C CNN
	1    1200 3050
	1    0    0    -1  
$EndComp
$Comp
L +5V #PWR020
U 1 1 5B88AD88
P 2850 2550
F 0 "#PWR020" H 2850 2400 50  0001 C CNN
F 1 "+5V" H 2850 2690 50  0000 C CNN
F 2 "" H 2850 2550 50  0001 C CNN
F 3 "" H 2850 2550 50  0001 C CNN
	1    2850 2550
	1    0    0    -1  
$EndComp
$Comp
L +5V #PWR021
U 1 1 5B88B230
P 3800 5700
F 0 "#PWR021" H 3800 5550 50  0001 C CNN
F 1 "+5V" H 3800 5840 50  0000 C CNN
F 2 "" H 3800 5700 50  0001 C CNN
F 3 "" H 3800 5700 50  0001 C CNN
	1    3800 5700
	1    0    0    -1  
$EndComp
Text GLabel 2200 5100 0    60   Input ~ 0
SCL
Text GLabel 2200 5200 0    60   Input ~ 0
SDA
NoConn ~ 1950 5850
NoConn ~ 3900 5850
NoConn ~ 5800 5850
NoConn ~ 7800 5850
$Comp
L GND #PWR022
U 1 1 5B8961D7
P 3700 6000
F 0 "#PWR022" H 3700 5750 50  0001 C CNN
F 1 "GND" H 3700 5850 50  0000 C CNN
F 2 "" H 3700 6000 50  0001 C CNN
F 3 "" H 3700 6000 50  0001 C CNN
	1    3700 6000
	1    0    0    -1  
$EndComp
$Comp
L GND #PWR023
U 1 1 5B89639B
P 5650 6000
F 0 "#PWR023" H 5650 5750 50  0001 C CNN
F 1 "GND" H 5650 5850 50  0000 C CNN
F 2 "" H 5650 6000 50  0001 C CNN
F 3 "" H 5650 6000 50  0001 C CNN
	1    5650 6000
	1    0    0    -1  
$EndComp
$Comp
L GND #PWR024
U 1 1 5B8965A7
P 7600 6000
F 0 "#PWR024" H 7600 5750 50  0001 C CNN
F 1 "GND" H 7600 5850 50  0000 C CNN
F 2 "" H 7600 6000 50  0001 C CNN
F 3 "" H 7600 6000 50  0001 C CNN
	1    7600 6000
	1    0    0    -1  
$EndComp
$Comp
L +5V #PWR025
U 1 1 5B8966C0
P 3400 5800
F 0 "#PWR025" H 3400 5650 50  0001 C CNN
F 1 "+5V" H 3400 5940 50  0000 C CNN
F 2 "" H 3400 5800 50  0001 C CNN
F 3 "" H 3400 5800 50  0001 C CNN
	1    3400 5800
	1    0    0    -1  
$EndComp
$Comp
L C C6
U 1 1 5B89706E
P 3400 6050
F 0 "C6" H 3425 6150 50  0000 L CNN
F 1 "0.1uF" H 3425 5950 50  0000 L CNN
F 2 "Capacitors_SMD:C_0805" H 3438 5900 50  0001 C CNN
F 3 "" H 3400 6050 50  0001 C CNN
	1    3400 6050
	1    0    0    -1  
$EndComp
$Comp
L GND #PWR026
U 1 1 5B89747D
P 3400 6300
F 0 "#PWR026" H 3400 6050 50  0001 C CNN
F 1 "GND" H 3400 6150 50  0000 C CNN
F 2 "" H 3400 6300 50  0001 C CNN
F 3 "" H 3400 6300 50  0001 C CNN
	1    3400 6300
	1    0    0    -1  
$EndComp
$Comp
L +5V #PWR027
U 1 1 5B896963
P 9250 5800
F 0 "#PWR027" H 9250 5650 50  0001 C CNN
F 1 "+5V" H 9250 5940 50  0000 C CNN
F 2 "" H 9250 5800 50  0001 C CNN
F 3 "" H 9250 5800 50  0001 C CNN
	1    9250 5800
	1    0    0    -1  
$EndComp
$Comp
L +5V #PWR028
U 1 1 5B896774
P 7250 5800
F 0 "#PWR028" H 7250 5650 50  0001 C CNN
F 1 "+5V" H 7250 5940 50  0000 C CNN
F 2 "" H 7250 5800 50  0001 C CNN
F 3 "" H 7250 5800 50  0001 C CNN
	1    7250 5800
	1    0    0    -1  
$EndComp
$Comp
L +5V #PWR029
U 1 1 5B89671A
P 5350 5800
F 0 "#PWR029" H 5350 5650 50  0001 C CNN
F 1 "+5V" H 5350 5940 50  0000 C CNN
F 2 "" H 5350 5800 50  0001 C CNN
F 3 "" H 5350 5800 50  0001 C CNN
	1    5350 5800
	1    0    0    -1  
$EndComp
$Comp
L C C7
U 1 1 5B897F75
P 5350 6050
F 0 "C7" H 5375 6150 50  0000 L CNN
F 1 "0.1uF" H 5350 5950 50  0000 L CNN
F 2 "Capacitors_SMD:C_0805" H 5388 5900 50  0001 C CNN
F 3 "" H 5350 6050 50  0001 C CNN
	1    5350 6050
	1    0    0    -1  
$EndComp
$Comp
L GND #PWR030
U 1 1 5B8983FE
P 5350 6300
F 0 "#PWR030" H 5350 6050 50  0001 C CNN
F 1 "GND" H 5350 6150 50  0000 C CNN
F 2 "" H 5350 6300 50  0001 C CNN
F 3 "" H 5350 6300 50  0001 C CNN
	1    5350 6300
	1    0    0    -1  
$EndComp
$Comp
L C C8
U 1 1 5B898A59
P 7250 6050
F 0 "C8" H 7275 6150 50  0000 L CNN
F 1 "0.1uF" H 7275 5950 50  0000 L CNN
F 2 "Capacitors_SMD:C_0805" H 7288 5900 50  0001 C CNN
F 3 "" H 7250 6050 50  0001 C CNN
	1    7250 6050
	1    0    0    -1  
$EndComp
$Comp
L GND #PWR031
U 1 1 5B898DE4
P 7250 6300
F 0 "#PWR031" H 7250 6050 50  0001 C CNN
F 1 "GND" H 7250 6150 50  0000 C CNN
F 2 "" H 7250 6300 50  0001 C CNN
F 3 "" H 7250 6300 50  0001 C CNN
	1    7250 6300
	1    0    0    -1  
$EndComp
$Comp
L C C9
U 1 1 5B899233
P 9250 6050
F 0 "C9" H 9275 6150 50  0000 L CNN
F 1 "0.1uF" H 9275 5950 50  0000 L CNN
F 2 "Capacitors_SMD:C_0805" H 9288 5900 50  0001 C CNN
F 3 "" H 9250 6050 50  0001 C CNN
	1    9250 6050
	1    0    0    -1  
$EndComp
$Comp
L GND #PWR032
U 1 1 5B89932D
P 9250 6300
F 0 "#PWR032" H 9250 6050 50  0001 C CNN
F 1 "GND" H 9250 6150 50  0000 C CNN
F 2 "" H 9250 6300 50  0001 C CNN
F 3 "" H 9250 6300 50  0001 C CNN
	1    9250 6300
	1    0    0    -1  
$EndComp
Text GLabel 7350 2600 2    60   Input ~ 0
SCL
Text GLabel 7350 2900 2    60   Input ~ 0
SDA
$Comp
L Conn_01x02 J8
U 1 1 5B89B2A2
P 1950 6850
F 0 "J8" H 1950 6950 50  0000 C CNN
F 1 "Conn_01x02" H 1950 6650 50  0000 C CNN
F 2 "TerminalBlock_Phoenix:TerminalBlock_Phoenix_MPT-2.54mm_2pol" H 1950 6850 50  0001 C CNN
F 3 "" H 1950 6850 50  0001 C CNN
	1    1950 6850
	0    -1   1    0   
$EndComp
$Comp
L Conn_01x02 J9
U 1 1 5B89B345
P 3150 6850
F 0 "J9" H 3150 6950 50  0000 C CNN
F 1 "Conn_01x02" H 3150 6650 50  0000 C CNN
F 2 "TerminalBlock_Phoenix:TerminalBlock_Phoenix_MPT-2.54mm_2pol" H 3150 6850 50  0001 C CNN
F 3 "" H 3150 6850 50  0001 C CNN
	1    3150 6850
	0    -1   1    0   
$EndComp
$Comp
L Conn_01x02 J10
U 1 1 5B89B3D6
P 3900 6850
F 0 "J10" H 3900 6950 50  0000 C CNN
F 1 "Conn_01x02" H 3900 6650 50  0000 C CNN
F 2 "TerminalBlock_Phoenix:TerminalBlock_Phoenix_MPT-2.54mm_2pol" H 3900 6850 50  0001 C CNN
F 3 "" H 3900 6850 50  0001 C CNN
	1    3900 6850
	0    -1   1    0   
$EndComp
$Comp
L Conn_01x02 J11
U 1 1 5B89B573
P 5100 6850
F 0 "J11" H 5100 6950 50  0000 C CNN
F 1 "Conn_01x02" H 5100 6650 50  0000 C CNN
F 2 "TerminalBlock_Phoenix:TerminalBlock_Phoenix_MPT-2.54mm_2pol" H 5100 6850 50  0001 C CNN
F 3 "" H 5100 6850 50  0001 C CNN
	1    5100 6850
	0    -1   1    0   
$EndComp
$Comp
L Conn_01x02 J12
U 1 1 5B89B5F6
P 5800 6850
F 0 "J12" H 5800 6950 50  0000 C CNN
F 1 "Conn_01x02" H 5800 6650 50  0000 C CNN
F 2 "TerminalBlock_Phoenix:TerminalBlock_Phoenix_MPT-2.54mm_2pol" H 5800 6850 50  0001 C CNN
F 3 "" H 5800 6850 50  0001 C CNN
	1    5800 6850
	0    -1   1    0   
$EndComp
$Comp
L Conn_01x02 J13
U 1 1 5B89B689
P 7000 6850
F 0 "J13" H 7000 6950 50  0000 C CNN
F 1 "Conn_01x02" H 7000 6650 50  0000 C CNN
F 2 "TerminalBlock_Phoenix:TerminalBlock_Phoenix_MPT-2.54mm_2pol" H 7000 6850 50  0001 C CNN
F 3 "" H 7000 6850 50  0001 C CNN
	1    7000 6850
	0    -1   1    0   
$EndComp
$Comp
L Conn_01x02 J14
U 1 1 5B89B7C7
P 7800 6850
F 0 "J14" H 7800 6950 50  0000 C CNN
F 1 "Conn_01x02" H 7800 6650 50  0000 C CNN
F 2 "TerminalBlock_Phoenix:TerminalBlock_Phoenix_MPT-2.54mm_2pol" H 7800 6850 50  0001 C CNN
F 3 "" H 7800 6850 50  0001 C CNN
	1    7800 6850
	0    -1   1    0   
$EndComp
$Comp
L Conn_01x02 J15
U 1 1 5B89B894
P 9000 6850
F 0 "J15" H 9000 6950 50  0000 C CNN
F 1 "Conn_01x02" H 9000 6650 50  0000 C CNN
F 2 "TerminalBlock_Phoenix:TerminalBlock_Phoenix_MPT-2.54mm_2pol" H 9000 6850 50  0001 C CNN
F 3 "" H 9000 6850 50  0001 C CNN
	1    9000 6850
	0    -1   1    0   
$EndComp
$Comp
L GND #PWR033
U 1 1 5AE78CB9
P 7550 2400
F 0 "#PWR033" H 7550 2150 50  0001 C CNN
F 1 "GND" H 7550 2250 50  0000 C CNN
F 2 "" H 7550 2400 50  0001 C CNN
F 3 "" H 7550 2400 50  0001 C CNN
	1    7550 2400
	0    -1   -1   0   
$EndComp
Text GLabel 7350 2500 2    60   Input ~ 0
MOSI
Text GLabel 7350 3400 2    60   Input ~ 0
CS
Text GLabel 7350 3100 2    60   Input ~ 0
MISO
Text GLabel 7350 3200 2    60   Input ~ 0
SCK
Text GLabel 9700 1900 3    60   Input ~ 0
CS
Text GLabel 9800 1900 3    60   Input ~ 0
MOSI
Text GLabel 9900 1900 3    60   Input ~ 0
MISO
Text GLabel 10000 1900 3    60   Input ~ 0
SCK
Text GLabel 10100 1900 3    60   Input ~ 0
SCL
Text GLabel 10200 1900 3    60   Input ~ 0
SDA
$Comp
L GND #PWR034
U 1 1 5B8A1817
P 10300 2100
F 0 "#PWR034" H 10300 1850 50  0001 C CNN
F 1 "GND" H 10300 1950 50  0000 C CNN
F 2 "" H 10300 2100 50  0001 C CNN
F 3 "" H 10300 2100 50  0001 C CNN
	1    10300 2100
	1    0    0    -1  
$EndComp
$Comp
L +5V #PWR035
U 1 1 5B8A1889
P 10450 2100
F 0 "#PWR035" H 10450 1950 50  0001 C CNN
F 1 "+5V" H 10450 2240 50  0000 C CNN
F 2 "" H 10450 2100 50  0001 C CNN
F 3 "" H 10450 2100 50  0001 C CNN
	1    10450 2100
	-1   0    0    1   
$EndComp
NoConn ~ 7350 3500
NoConn ~ 5500 2650
NoConn ~ 5500 2750
NoConn ~ 5500 2850
NoConn ~ 5500 2950
NoConn ~ 5500 3350
NoConn ~ 5500 3450
$Comp
L PWR_FLAG #FLG036
U 1 1 5B8A26A8
P 2550 2550
F 0 "#FLG036" H 2550 2625 50  0001 C CNN
F 1 "PWR_FLAG" H 2550 2700 50  0000 C CNN
F 2 "" H 2550 2550 50  0001 C CNN
F 3 "" H 2550 2550 50  0001 C CNN
	1    2550 2550
	1    0    0    -1  
$EndComp
$Comp
L R R9
U 1 1 5B89B8F1
P 2300 4750
F 0 "R9" V 2380 4750 50  0000 C CNN
F 1 "10k" V 2300 4750 50  0000 C CNN
F 2 "Resistors_SMD:R_0805" V 2230 4750 50  0001 C CNN
F 3 "" H 2300 4750 50  0001 C CNN
	1    2300 4750
	1    0    0    -1  
$EndComp
$Comp
L R R10
U 1 1 5B89B990
P 2700 4750
F 0 "R10" V 2780 4750 50  0000 C CNN
F 1 "10k" V 2700 4750 50  0000 C CNN
F 2 "Resistors_SMD:R_0805" V 2630 4750 50  0001 C CNN
F 3 "" H 2700 4750 50  0001 C CNN
	1    2700 4750
	1    0    0    -1  
$EndComp
$Comp
L +5V #PWR037
U 1 1 5B89BEF6
P 2500 4500
F 0 "#PWR037" H 2500 4350 50  0001 C CNN
F 1 "+5V" H 2500 4640 50  0000 C CNN
F 2 "" H 2500 4500 50  0001 C CNN
F 3 "" H 2500 4500 50  0001 C CNN
	1    2500 4500
	1    0    0    -1  
$EndComp
Wire Wire Line
	3450 1500 4250 1500
Wire Wire Line
	900  1500 2850 1500
Wire Wire Line
	900  1600 950  1600
Wire Wire Line
	950  1600 950  1650
Wire Wire Line
	3150 1800 3150 1900
Wire Wire Line
	3300 1850 3150 1850
Connection ~ 3150 1850
Wire Wire Line
	4250 2450 5500 2450
Wire Wire Line
	5350 4050 5350 4100
Wire Wire Line
	5350 4500 5350 4400
Wire Wire Line
	5050 4500 4950 4500
Wire Wire Line
	4950 4500 4950 4550
Wire Wire Line
	7350 2400 7550 2400
Wire Wire Line
	2750 1500 2750 1550
Connection ~ 2750 1500
Wire Wire Line
	1600 5750 1600 6050
Wire Wire Line
	1600 5750 1950 5750
Connection ~ 1000 1500
Wire Wire Line
	1550 2600 1200 2600
Wire Wire Line
	2150 2600 2850 2600
Wire Wire Line
	2400 2600 2400 2650
Wire Wire Line
	1200 2950 1200 3050
Wire Wire Line
	1850 2900 1850 3000
Wire Wire Line
	2400 2950 2400 3050
Connection ~ 2400 2600
Wire Wire Line
	3800 5700 3800 5750
Wire Wire Line
	3800 5750 3900 5750
Wire Wire Line
	2200 5100 8400 5100
Wire Wire Line
	2550 5100 2550 5500
Wire Wire Line
	4500 5100 4500 5500
Connection ~ 2550 5100
Wire Wire Line
	6400 5100 6400 5500
Connection ~ 4500 5100
Wire Wire Line
	8400 5100 8400 5500
Connection ~ 6400 5100
Wire Wire Line
	2200 5200 9050 5200
Wire Wire Line
	3200 5200 3200 5750
Wire Wire Line
	3200 5750 3100 5750
Wire Wire Line
	5050 5750 5150 5750
Wire Wire Line
	5150 5750 5150 5200
Connection ~ 3200 5200
Wire Wire Line
	6950 5750 7050 5750
Wire Wire Line
	7050 5750 7050 5200
Connection ~ 5150 5200
Wire Wire Line
	8950 5750 9050 5750
Wire Wire Line
	9050 5750 9050 5200
Connection ~ 7050 5200
Wire Wire Line
	5800 5750 5700 5750
Wire Wire Line
	5700 5750 5700 5100
Connection ~ 5700 5100
Wire Wire Line
	7800 5750 7700 5750
Wire Wire Line
	7700 5750 7700 5200
Connection ~ 7700 5200
Wire Wire Line
	1950 5950 1600 5950
Connection ~ 1600 5950
Wire Wire Line
	3900 5950 3700 5950
Wire Wire Line
	3700 5950 3700 6000
Wire Wire Line
	5800 5950 5650 5950
Wire Wire Line
	5650 5950 5650 6000
Wire Wire Line
	7800 5950 7600 5950
Wire Wire Line
	7600 5950 7600 6000
Wire Wire Line
	3100 5850 3400 5850
Wire Wire Line
	3400 5800 3400 5900
Connection ~ 3400 5850
Wire Wire Line
	3400 6200 3400 6300
Wire Wire Line
	8950 5850 9250 5850
Wire Wire Line
	6950 5850 7250 5850
Wire Wire Line
	5050 5850 5350 5850
Wire Wire Line
	5350 5800 5350 5900
Connection ~ 5350 5850
Wire Wire Line
	5350 6200 5350 6300
Wire Wire Line
	7250 5800 7250 5900
Connection ~ 7250 5850
Wire Wire Line
	7250 6200 7250 6300
Wire Wire Line
	9250 5800 9250 5900
Connection ~ 9250 5850
Wire Wire Line
	9250 6300 9250 6200
Wire Wire Line
	1200 1500 1200 2650
Connection ~ 1200 1500
Connection ~ 1200 2600
Wire Wire Line
	1950 6050 1950 6650
Wire Wire Line
	2550 6300 2050 6300
Wire Wire Line
	2050 6300 2050 6650
Wire Wire Line
	3100 6050 3150 6050
Wire Wire Line
	3150 6050 3150 6650
Wire Wire Line
	3100 5950 3250 5950
Wire Wire Line
	3250 5950 3250 6650
Wire Wire Line
	3900 6050 3900 6650
Wire Wire Line
	4500 6300 4000 6300
Wire Wire Line
	4000 6300 4000 6650
Wire Wire Line
	5050 6050 5100 6050
Wire Wire Line
	5100 6050 5100 6650
Wire Wire Line
	5050 5950 5200 5950
Wire Wire Line
	5200 5950 5200 6650
Wire Wire Line
	5800 6050 5800 6650
Wire Wire Line
	5900 6650 5900 6300
Wire Wire Line
	5900 6300 6400 6300
Wire Wire Line
	6950 6050 7000 6050
Wire Wire Line
	7000 6050 7000 6650
Wire Wire Line
	6950 5950 7100 5950
Wire Wire Line
	7100 5950 7100 6650
Wire Wire Line
	7800 6050 7800 6650
Wire Wire Line
	7900 6650 7900 6300
Wire Wire Line
	7900 6300 8400 6300
Wire Wire Line
	8950 6050 9000 6050
Wire Wire Line
	9000 6050 9000 6650
Wire Wire Line
	8950 5950 9100 5950
Wire Wire Line
	9100 5950 9100 6650
Wire Wire Line
	10300 1900 10300 2100
Wire Wire Line
	10400 1900 10400 2000
Wire Wire Line
	10400 2000 10450 2000
Wire Wire Line
	10450 2000 10450 2100
Wire Wire Line
	2550 2550 2550 2600
Connection ~ 2550 2600
Wire Wire Line
	2850 2600 2850 2550
Wire Wire Line
	2300 4900 2300 5100
Connection ~ 2300 5100
Wire Wire Line
	2700 4900 2700 5200
Connection ~ 2700 5200
Wire Wire Line
	2300 4600 2300 4550
Wire Wire Line
	2300 4550 2700 4550
Wire Wire Line
	2700 4550 2700 4600
$Comp
L ADS1115 U7
U 1 1 5B894A7A
P 8400 5900
F 0 "U7" H 8400 5400 60  0000 C CNN
F 1 "ADS1115" H 8400 6400 60  0000 C CNN
F 2 "Housings_SSOP:MSOP-10_3x3mm_Pitch0.5mm" H 8350 6000 60  0001 C CNN
F 3 "" H 8350 6000 60  0001 C CNN
	1    8400 5900
	1    0    0    -1  
$EndComp
$Comp
L ADS1115 U6
U 1 1 5B89494D
P 6400 5900
F 0 "U6" H 6400 5400 60  0000 C CNN
F 1 "ADS1115" H 6400 6400 60  0000 C CNN
F 2 "Housings_SSOP:MSOP-10_3x3mm_Pitch0.5mm" H 6350 6000 60  0001 C CNN
F 3 "" H 6350 6000 60  0001 C CNN
	1    6400 5900
	1    0    0    -1  
$EndComp
$Comp
L ADS1115 U5
U 1 1 5B8948D4
P 4500 5900
F 0 "U5" H 4500 5400 60  0000 C CNN
F 1 "ADS1115" H 4500 6400 60  0000 C CNN
F 2 "Housings_SSOP:MSOP-10_3x3mm_Pitch0.5mm" H 4450 6000 60  0001 C CNN
F 3 "" H 4450 6000 60  0001 C CNN
	1    4500 5900
	1    0    0    -1  
$EndComp
$Comp
L ADS1115 U4
U 1 1 5B8947BB
P 2550 5900
F 0 "U4" H 2550 5400 60  0000 C CNN
F 1 "ADS1115" H 2550 6400 60  0000 C CNN
F 2 "Housings_SSOP:MSOP-10_3x3mm_Pitch0.5mm" H 2500 6000 60  0001 C CNN
F 3 "" H 2500 6000 60  0001 C CNN
	1    2550 5900
	1    0    0    -1  
$EndComp
Wire Wire Line
	2500 4500 2500 4550
Connection ~ 2500 4550
$Comp
L Conn_01x19 J7
U 1 1 5B8D3D57
P 5700 3350
F 0 "J7" H 5700 4350 50  0000 C CNN
F 1 "Conn_01x19" H 5700 2350 50  0000 C CNN
F 2 "Pin_Headers:Pin_Header_Straight_1x19_Pitch2.54mm" H 5700 3350 50  0001 C CNN
F 3 "" H 5700 3350 50  0001 C CNN
	1    5700 3350
	1    0    0    -1  
$EndComp
$Comp
L Conn_01x19 J16
U 1 1 5B8D3FCF
P 7150 3300
F 0 "J16" H 7150 4300 50  0000 C CNN
F 1 "Conn_01x19" H 7150 2300 50  0000 C CNN
F 2 "Pin_Headers:Pin_Header_Straight_1x19_Pitch2.54mm" H 7150 3300 50  0001 C CNN
F 3 "" H 7150 3300 50  0001 C CNN
	1    7150 3300
	-1   0    0    -1  
$EndComp
NoConn ~ 7350 2700
NoConn ~ 7350 2800
Wire Wire Line
	3650 1550 3650 1500
Connection ~ 3650 1500
NoConn ~ 5500 2550
$Comp
L GND #PWR038
U 1 1 5B8D612E
P 5300 3800
F 0 "#PWR038" H 5300 3550 50  0001 C CNN
F 1 "GND" H 5300 3650 50  0000 C CNN
F 2 "" H 5300 3800 50  0001 C CNN
F 3 "" H 5300 3800 50  0001 C CNN
	1    5300 3800
	1    0    0    -1  
$EndComp
Wire Wire Line
	5300 3750 5500 3750
Wire Wire Line
	5300 3750 5300 3800
NoConn ~ 5500 3650
Wire Wire Line
	5350 4050 5450 4050
Wire Wire Line
	5450 4050 5450 3850
Wire Wire Line
	5450 3850 5500 3850
NoConn ~ 5500 3950
NoConn ~ 5500 4050
NoConn ~ 5500 4150
NoConn ~ 5500 4250
$Comp
L GND #PWR039
U 1 1 5B8D7ABA
P 7550 3000
F 0 "#PWR039" H 7550 2750 50  0001 C CNN
F 1 "GND" H 7550 2850 50  0000 C CNN
F 2 "" H 7550 3000 50  0001 C CNN
F 3 "" H 7550 3000 50  0001 C CNN
	1    7550 3000
	0    -1   -1   0   
$EndComp
Wire Wire Line
	7350 3000 7550 3000
NoConn ~ 7350 3300
NoConn ~ 7350 3700
NoConn ~ 7350 3800
NoConn ~ 7350 3900
NoConn ~ 7350 4000
NoConn ~ 7350 4100
NoConn ~ 7350 4200
Wire Wire Line
	4250 1400 4250 2450
Wire Wire Line
	4300 1900 4250 1900
Connection ~ 4250 1900
Connection ~ 4250 1500
NoConn ~ 5500 3050
NoConn ~ 5500 3150
NoConn ~ 5500 3250
$EndSCHEMATC
