(export (version D)
  (design
    (source "/home/edge/Documentos/ANEEL/ESP32_Datalogger/PCB - ESP devkit/Weather-Station.sch")
    (date "Qua 05 Set 2018 16:23:03 -03")
    (tool "Eeschema 4.0.7-e2-6376~58~ubuntu16.04.1")
    (sheet (number 1) (name /) (tstamps /)
      (title_block
        (title)
        (company)
        (rev)
        (date)
        (source Weather-Station.sch)
        (comment (number 1) (value ""))
        (comment (number 2) (value ""))
        (comment (number 3) (value ""))
        (comment (number 4) (value "")))))
  (components
    (comp (ref J2)
      (value Power)
      (footprint TerminalBlock_Phoenix:TerminalBlock_Phoenix_PT-3.5mm_2pol)
      (libsource (lib conn) (part Conn_01x02))
      (sheetpath (names /) (tstamps /))
      (tstamp 5A58EC49))
    (comp (ref U1)
      (value AP1117-33)
      (footprint TO_SOT_Packages_SMD:SOT-223)
      (libsource (lib regul) (part AP1117-33))
      (sheetpath (names /) (tstamps /))
      (tstamp 5A5E4D51))
    (comp (ref R11)
      (value 330)
      (footprint Resistors_SMD:R_0805)
      (libsource (lib device) (part R))
      (sheetpath (names /) (tstamps /))
      (tstamp 5AE78807))
    (comp (ref D3)
      (value LED)
      (footprint LEDs:LED_0805)
      (libsource (lib device) (part LED))
      (sheetpath (names /) (tstamps /))
      (tstamp 5AE78936))
    (comp (ref C3)
      (value 22μF)
      (footprint Capacitors_SMD:CP_Elec_6.3x7.7)
      (libsource (lib device) (part CP1))
      (sheetpath (names /) (tstamps /))
      (tstamp 5AE7CFB1))
    (comp (ref C2)
      (value 22μF)
      (footprint Capacitors_SMD:CP_Elec_6.3x7.7)
      (libsource (lib device) (part CP1))
      (sheetpath (names /) (tstamps /))
      (tstamp 5AE7D0CE))
    (comp (ref J3)
      (value DataLogger)
      (footprint Pin_Headers:Pin_Header_Straight_1x08_Pitch2.54mm)
      (libsource (lib conn) (part Conn_01x08))
      (sheetpath (names /) (tstamps /))
      (tstamp 5B86B0D6))
    (comp (ref U3)
      (value AP1117-33)
      (footprint TO_SOT_Packages_SMD:SOT-223)
      (libsource (lib regul) (part AP1117-33))
      (sheetpath (names /) (tstamps /))
      (tstamp 5B88A5A9))
    (comp (ref C4)
      (value 22μF)
      (footprint Capacitors_SMD:CP_Elec_6.3x7.7)
      (libsource (lib device) (part CP1))
      (sheetpath (names /) (tstamps /))
      (tstamp 5B88A6B9))
    (comp (ref C5)
      (value 22μF)
      (footprint Capacitors_SMD:CP_Elec_6.3x7.7)
      (libsource (lib device) (part CP1))
      (sheetpath (names /) (tstamps /))
      (tstamp 5B88A726))
    (comp (ref C6)
      (value 0.1uF)
      (footprint Capacitors_SMD:C_0805)
      (libsource (lib device) (part C))
      (sheetpath (names /) (tstamps /))
      (tstamp 5B89706E))
    (comp (ref C7)
      (value 0.1uF)
      (footprint Capacitors_SMD:C_0805)
      (libsource (lib device) (part C))
      (sheetpath (names /) (tstamps /))
      (tstamp 5B897F75))
    (comp (ref C8)
      (value 0.1uF)
      (footprint Capacitors_SMD:C_0805)
      (libsource (lib device) (part C))
      (sheetpath (names /) (tstamps /))
      (tstamp 5B898A59))
    (comp (ref C9)
      (value 0.1uF)
      (footprint Capacitors_SMD:C_0805)
      (libsource (lib device) (part C))
      (sheetpath (names /) (tstamps /))
      (tstamp 5B899233))
    (comp (ref J8)
      (value Conn_01x02)
      (footprint TerminalBlock_Phoenix:TerminalBlock_Phoenix_MPT-2.54mm_2pol)
      (libsource (lib conn) (part Conn_01x02))
      (sheetpath (names /) (tstamps /))
      (tstamp 5B89B2A2))
    (comp (ref J9)
      (value Conn_01x02)
      (footprint TerminalBlock_Phoenix:TerminalBlock_Phoenix_MPT-2.54mm_2pol)
      (libsource (lib conn) (part Conn_01x02))
      (sheetpath (names /) (tstamps /))
      (tstamp 5B89B345))
    (comp (ref J10)
      (value Conn_01x02)
      (footprint TerminalBlock_Phoenix:TerminalBlock_Phoenix_MPT-2.54mm_2pol)
      (libsource (lib conn) (part Conn_01x02))
      (sheetpath (names /) (tstamps /))
      (tstamp 5B89B3D6))
    (comp (ref J11)
      (value Conn_01x02)
      (footprint TerminalBlock_Phoenix:TerminalBlock_Phoenix_MPT-2.54mm_2pol)
      (libsource (lib conn) (part Conn_01x02))
      (sheetpath (names /) (tstamps /))
      (tstamp 5B89B573))
    (comp (ref J12)
      (value Conn_01x02)
      (footprint TerminalBlock_Phoenix:TerminalBlock_Phoenix_MPT-2.54mm_2pol)
      (libsource (lib conn) (part Conn_01x02))
      (sheetpath (names /) (tstamps /))
      (tstamp 5B89B5F6))
    (comp (ref J13)
      (value Conn_01x02)
      (footprint TerminalBlock_Phoenix:TerminalBlock_Phoenix_MPT-2.54mm_2pol)
      (libsource (lib conn) (part Conn_01x02))
      (sheetpath (names /) (tstamps /))
      (tstamp 5B89B689))
    (comp (ref J14)
      (value Conn_01x02)
      (footprint TerminalBlock_Phoenix:TerminalBlock_Phoenix_MPT-2.54mm_2pol)
      (libsource (lib conn) (part Conn_01x02))
      (sheetpath (names /) (tstamps /))
      (tstamp 5B89B7C7))
    (comp (ref J15)
      (value Conn_01x02)
      (footprint TerminalBlock_Phoenix:TerminalBlock_Phoenix_MPT-2.54mm_2pol)
      (libsource (lib conn) (part Conn_01x02))
      (sheetpath (names /) (tstamps /))
      (tstamp 5B89B894))
    (comp (ref R9)
      (value 10k)
      (footprint Resistors_SMD:R_0805)
      (libsource (lib device) (part R))
      (sheetpath (names /) (tstamps /))
      (tstamp 5B89B8F1))
    (comp (ref R10)
      (value 10k)
      (footprint Resistors_SMD:R_0805)
      (libsource (lib device) (part R))
      (sheetpath (names /) (tstamps /))
      (tstamp 5B89B990))
    (comp (ref U7)
      (value ADS1115)
      (footprint Housings_SSOP:MSOP-10_3x3mm_Pitch0.5mm)
      (libsource (lib Weather-Station-cache) (part ADS1115))
      (sheetpath (names /) (tstamps /))
      (tstamp 5B894A7A))
    (comp (ref U6)
      (value ADS1115)
      (footprint Housings_SSOP:MSOP-10_3x3mm_Pitch0.5mm)
      (libsource (lib Weather-Station-cache) (part ADS1115))
      (sheetpath (names /) (tstamps /))
      (tstamp 5B89494D))
    (comp (ref U5)
      (value ADS1115)
      (footprint Housings_SSOP:MSOP-10_3x3mm_Pitch0.5mm)
      (libsource (lib Weather-Station-cache) (part ADS1115))
      (sheetpath (names /) (tstamps /))
      (tstamp 5B8948D4))
    (comp (ref U4)
      (value ADS1115)
      (footprint Housings_SSOP:MSOP-10_3x3mm_Pitch0.5mm)
      (libsource (lib Weather-Station-cache) (part ADS1115))
      (sheetpath (names /) (tstamps /))
      (tstamp 5B8947BB))
    (comp (ref J7)
      (value Conn_01x19)
      (footprint Pin_Headers:Pin_Header_Straight_1x19_Pitch2.54mm)
      (libsource (lib conn) (part Conn_01x19))
      (sheetpath (names /) (tstamps /))
      (tstamp 5B8D3D57))
    (comp (ref J16)
      (value Conn_01x19)
      (footprint Pin_Headers:Pin_Header_Straight_1x19_Pitch2.54mm)
      (libsource (lib conn) (part Conn_01x19))
      (sheetpath (names /) (tstamps /))
      (tstamp 5B8D3FCF)))
  (libparts
    (libpart (lib Weather-Station-cache) (part ADS1115)
      (fields
        (field (name Reference) U)
        (field (name Value) ADS1115))
      (pins
        (pin (num 1) (name ADDR) (type input))
        (pin (num 2) (name ALERT) (type input))
        (pin (num 3) (name GND) (type power_in))
        (pin (num 4) (name AIN0) (type input))
        (pin (num 5) (name AIN1) (type input))
        (pin (num 6) (name AIN2) (type input))
        (pin (num 7) (name AIN3) (type input))
        (pin (num 8) (name VDD) (type power_in))
        (pin (num 9) (name SDA) (type input))
        (pin (num 10) (name SCL) (type input))))
    (libpart (lib regul) (part AP1117-15)
      (aliases
        (alias AP1117-18)
        (alias AP1117-25)
        (alias AP1117-33)
        (alias AP1117-50)
        (alias LD1117S33TR_SOT223)
        (alias LD1117S12TR_SOT223)
        (alias LD1117S18TR_SOT223)
        (alias LD1117S25TR_SOT223)
        (alias LD1117S50TR_SOT223)
        (alias NCP1117-12_SOT223)
        (alias NCP1117-1.5_SOT223)
        (alias NCP1117-1.8_SOT223)
        (alias NCP1117-2.0_SOT223)
        (alias NCP1117-2.5_SOT223)
        (alias NCP1117-2.85_SOT223)
        (alias NCP1117-3.3_SOT223)
        (alias NCP1117-5.0_SOT223))
      (description "1A Low Dropout regulator, positive, 1.5V fixed output, SOT-223")
      (docs http://www.diodes.com/datasheets/AP1117.pdf)
      (footprints
        (fp SOT?223*TabPin2*))
      (fields
        (field (name Reference) U)
        (field (name Value) AP1117-15)
        (field (name Footprint) TO_SOT_Packages_SMD:SOT-223-3Lead_TabPin2))
      (pins
        (pin (num 1) (name GND) (type power_in))
        (pin (num 2) (name VO) (type passive))
        (pin (num 3) (name VI) (type power_in))))
    (libpart (lib device) (part C)
      (description "Unpolarized capacitor")
      (footprints
        (fp C_*))
      (fields
        (field (name Reference) C)
        (field (name Value) C))
      (pins
        (pin (num 1) (name ~) (type passive))
        (pin (num 2) (name ~) (type passive))))
    (libpart (lib device) (part CP1)
      (description "Polarised capacitor")
      (footprints
        (fp CP_*))
      (fields
        (field (name Reference) C)
        (field (name Value) CP1))
      (pins
        (pin (num 1) (name ~) (type passive))
        (pin (num 2) (name ~) (type passive))))
    (libpart (lib conn) (part Conn_01x02)
      (description "Generic connector, single row, 01x02")
      (docs ~)
      (footprints
        (fp Connector*:*_??x*mm*)
        (fp Connector*:*1x??x*mm*)
        (fp Pin?Header?Straight?1X*)
        (fp Pin?Header?Angled?1X*)
        (fp Socket?Strip?Straight?1X*)
        (fp Socket?Strip?Angled?1X*))
      (fields
        (field (name Reference) J)
        (field (name Value) Conn_01x02))
      (pins
        (pin (num 1) (name Pin_1) (type passive))
        (pin (num 2) (name Pin_2) (type passive))))
    (libpart (lib conn) (part Conn_01x08)
      (description "Generic connector, single row, 01x08")
      (docs ~)
      (footprints
        (fp Connector*:*_??x*mm*)
        (fp Connector*:*1x??x*mm*)
        (fp Pin?Header?Straight?1X*)
        (fp Pin?Header?Angled?1X*)
        (fp Socket?Strip?Straight?1X*)
        (fp Socket?Strip?Angled?1X*))
      (fields
        (field (name Reference) J)
        (field (name Value) Conn_01x08))
      (pins
        (pin (num 1) (name Pin_1) (type passive))
        (pin (num 2) (name Pin_2) (type passive))
        (pin (num 3) (name Pin_3) (type passive))
        (pin (num 4) (name Pin_4) (type passive))
        (pin (num 5) (name Pin_5) (type passive))
        (pin (num 6) (name Pin_6) (type passive))
        (pin (num 7) (name Pin_7) (type passive))
        (pin (num 8) (name Pin_8) (type passive))))
    (libpart (lib conn) (part Conn_01x19)
      (description "Generic connector, single row, 01x19")
      (docs ~)
      (footprints
        (fp Connector*:*_??x*mm*)
        (fp Connector*:*1x??x*mm*)
        (fp Pin?Header?Straight?1X*)
        (fp Pin?Header?Angled?1X*)
        (fp Socket?Strip?Straight?1X*)
        (fp Socket?Strip?Angled?1X*))
      (fields
        (field (name Reference) J)
        (field (name Value) Conn_01x19))
      (pins
        (pin (num 1) (name Pin_1) (type passive))
        (pin (num 2) (name Pin_2) (type passive))
        (pin (num 3) (name Pin_3) (type passive))
        (pin (num 4) (name Pin_4) (type passive))
        (pin (num 5) (name Pin_5) (type passive))
        (pin (num 6) (name Pin_6) (type passive))
        (pin (num 7) (name Pin_7) (type passive))
        (pin (num 8) (name Pin_8) (type passive))
        (pin (num 9) (name Pin_9) (type passive))
        (pin (num 10) (name Pin_10) (type passive))
        (pin (num 11) (name Pin_11) (type passive))
        (pin (num 12) (name Pin_12) (type passive))
        (pin (num 13) (name Pin_13) (type passive))
        (pin (num 14) (name Pin_14) (type passive))
        (pin (num 15) (name Pin_15) (type passive))
        (pin (num 16) (name Pin_16) (type passive))
        (pin (num 17) (name Pin_17) (type passive))
        (pin (num 18) (name Pin_18) (type passive))
        (pin (num 19) (name Pin_19) (type passive))))
    (libpart (lib device) (part LED)
      (description "LED generic")
      (footprints
        (fp LED*))
      (fields
        (field (name Reference) D)
        (field (name Value) LED))
      (pins
        (pin (num 1) (name K) (type passive))
        (pin (num 2) (name A) (type passive))))
    (libpart (lib device) (part R)
      (description Resistor)
      (footprints
        (fp R_*)
        (fp R_*))
      (fields
        (field (name Reference) R)
        (field (name Value) R))
      (pins
        (pin (num 1) (name ~) (type passive))
        (pin (num 2) (name ~) (type passive)))))
  (libraries
    (library (logical device)
      (uri /usr/share/kicad/library/device.lib))
    (library (logical conn)
      (uri /usr/share/kicad/library/conn.lib))
    (library (logical regul)
      (uri /usr/share/kicad/library/regul.lib))
    (library (logical Weather-Station-cache)
      (uri "/home/edge/Documentos/ANEEL/ESP32_Datalogger/PCB - ESP devkit/Weather-Station-cache.lib")))
  (nets
    (net (code 1) (name "Net-(J15-Pad2)")
      (node (ref U7) (pin 7))
      (node (ref J15) (pin 2)))
    (net (code 2) (name "Net-(J15-Pad1)")
      (node (ref U7) (pin 6))
      (node (ref J15) (pin 1)))
    (net (code 3) (name "Net-(J14-Pad2)")
      (node (ref U7) (pin 5))
      (node (ref J14) (pin 2)))
    (net (code 4) (name "Net-(J14-Pad1)")
      (node (ref J14) (pin 1))
      (node (ref U7) (pin 4)))
    (net (code 5) (name "Net-(J13-Pad2)")
      (node (ref J13) (pin 2))
      (node (ref U6) (pin 7)))
    (net (code 6) (name "Net-(J13-Pad1)")
      (node (ref J13) (pin 1))
      (node (ref U6) (pin 6)))
    (net (code 7) (name "Net-(J12-Pad2)")
      (node (ref U6) (pin 5))
      (node (ref J12) (pin 2)))
    (net (code 8) (name "Net-(J12-Pad1)")
      (node (ref U6) (pin 4))
      (node (ref J12) (pin 1)))
    (net (code 9) (name "Net-(U6-Pad2)")
      (node (ref U6) (pin 2)))
    (net (code 10) (name "Net-(U7-Pad2)")
      (node (ref U7) (pin 2)))
    (net (code 11) (name +5V)
      (node (ref C8) (pin 1))
      (node (ref C9) (pin 1))
      (node (ref U5) (pin 1))
      (node (ref R10) (pin 1))
      (node (ref R9) (pin 1))
      (node (ref J3) (pin 8))
      (node (ref C6) (pin 1))
      (node (ref C5) (pin 1))
      (node (ref U4) (pin 8))
      (node (ref U3) (pin 2))
      (node (ref U5) (pin 8))
      (node (ref C7) (pin 1))
      (node (ref U6) (pin 8))
      (node (ref U7) (pin 8)))
    (net (code 12) (name "Net-(J8-Pad2)")
      (node (ref U4) (pin 5))
      (node (ref J8) (pin 2)))
    (net (code 13) (name "Net-(J11-Pad2)")
      (node (ref J11) (pin 2))
      (node (ref U5) (pin 7)))
    (net (code 14) (name "Net-(J11-Pad1)")
      (node (ref J11) (pin 1))
      (node (ref U5) (pin 6)))
    (net (code 15) (name "Net-(J10-Pad2)")
      (node (ref J10) (pin 2))
      (node (ref U5) (pin 5)))
    (net (code 16) (name "Net-(J10-Pad1)")
      (node (ref J10) (pin 1))
      (node (ref U5) (pin 4)))
    (net (code 17) (name "Net-(J9-Pad2)")
      (node (ref U4) (pin 7))
      (node (ref J9) (pin 2)))
    (net (code 18) (name "Net-(J9-Pad1)")
      (node (ref U4) (pin 6))
      (node (ref J9) (pin 1)))
    (net (code 19) (name "Net-(J8-Pad1)")
      (node (ref J8) (pin 1))
      (node (ref U4) (pin 4)))
    (net (code 20) (name "Net-(J16-Pad19)")
      (node (ref J16) (pin 19)))
    (net (code 21) (name "Net-(J7-Pad13)")
      (node (ref J7) (pin 13)))
    (net (code 22) (name GND)
      (node (ref C2) (pin 2))
      (node (ref C3) (pin 2))
      (node (ref J3) (pin 7))
      (node (ref U1) (pin 1))
      (node (ref C8) (pin 2))
      (node (ref C9) (pin 2))
      (node (ref C7) (pin 2))
      (node (ref D3) (pin 1))
      (node (ref C6) (pin 2))
      (node (ref U7) (pin 3))
      (node (ref J2) (pin 1))
      (node (ref C5) (pin 2))
      (node (ref U6) (pin 3))
      (node (ref U3) (pin 1))
      (node (ref U4) (pin 3))
      (node (ref U4) (pin 1))
      (node (ref U5) (pin 3))
      (node (ref J7) (pin 14))
      (node (ref J16) (pin 7))
      (node (ref C4) (pin 2))
      (node (ref J16) (pin 1)))
    (net (code 23) (name "Net-(J7-Pad2)")
      (node (ref J7) (pin 2)))
    (net (code 24) (name "Net-(J16-Pad5)")
      (node (ref J16) (pin 5)))
    (net (code 25) (name "Net-(J16-Pad4)")
      (node (ref J16) (pin 4)))
    (net (code 26) (name "Net-(J16-Pad18)")
      (node (ref J16) (pin 18)))
    (net (code 27) (name "Net-(J16-Pad17)")
      (node (ref J16) (pin 17)))
    (net (code 28) (name "Net-(J16-Pad16)")
      (node (ref J16) (pin 16)))
    (net (code 29) (name "Net-(J16-Pad15)")
      (node (ref J16) (pin 15)))
    (net (code 30) (name "Net-(J16-Pad14)")
      (node (ref J16) (pin 14)))
    (net (code 31) (name "Net-(J16-Pad13)")
      (node (ref J16) (pin 13)))
    (net (code 32) (name "Net-(J16-Pad12)")
      (node (ref J16) (pin 12)))
    (net (code 33) (name "Net-(J16-Pad10)")
      (node (ref J16) (pin 10)))
    (net (code 34) (name SCK)
      (node (ref J16) (pin 9))
      (node (ref J3) (pin 4)))
    (net (code 35) (name MISO)
      (node (ref J3) (pin 3))
      (node (ref J16) (pin 8)))
    (net (code 36) (name "Net-(J7-Pad9)")
      (node (ref J7) (pin 9)))
    (net (code 37) (name "Net-(J7-Pad8)")
      (node (ref J7) (pin 8)))
    (net (code 38) (name "Net-(J7-Pad7)")
      (node (ref J7) (pin 7)))
    (net (code 39) (name "Net-(J7-Pad19)")
      (node (ref J7) (pin 19)))
    (net (code 40) (name "Net-(J7-Pad18)")
      (node (ref J7) (pin 18)))
    (net (code 41) (name "Net-(J7-Pad17)")
      (node (ref J7) (pin 17)))
    (net (code 42) (name "Net-(J7-Pad16)")
      (node (ref J7) (pin 16)))
    (net (code 43) (name SDA)
      (node (ref R10) (pin 2))
      (node (ref U5) (pin 9))
      (node (ref U7) (pin 9))
      (node (ref U6) (pin 9))
      (node (ref U7) (pin 1))
      (node (ref J16) (pin 6))
      (node (ref U4) (pin 9))
      (node (ref J3) (pin 6)))
    (net (code 44) (name "Net-(J7-Pad3)")
      (node (ref J7) (pin 3)))
    (net (code 45) (name "Net-(U4-Pad2)")
      (node (ref U4) (pin 2)))
    (net (code 46) (name "Net-(U5-Pad2)")
      (node (ref U5) (pin 2)))
    (net (code 47) (name MOSI)
      (node (ref J16) (pin 2))
      (node (ref J3) (pin 2)))
    (net (code 48) (name "Net-(J7-Pad12)")
      (node (ref J7) (pin 12)))
    (net (code 49) (name "Net-(J7-Pad11)")
      (node (ref J7) (pin 11)))
    (net (code 50) (name "Net-(J7-Pad10)")
      (node (ref J7) (pin 10)))
    (net (code 51) (name "Net-(J7-Pad6)")
      (node (ref J7) (pin 6)))
    (net (code 52) (name "Net-(J7-Pad5)")
      (node (ref J7) (pin 5)))
    (net (code 53) (name "Net-(J7-Pad4)")
      (node (ref J7) (pin 4)))
    (net (code 54) (name "Net-(D3-Pad2)")
      (node (ref R11) (pin 2))
      (node (ref D3) (pin 2)))
    (net (code 55) (name "Net-(J7-Pad15)")
      (node (ref J7) (pin 15))
      (node (ref R11) (pin 1)))
    (net (code 56) (name +3V3)
      (node (ref U1) (pin 2))
      (node (ref J7) (pin 1))
      (node (ref C3) (pin 1)))
    (net (code 57) (name CS)
      (node (ref J3) (pin 1))
      (node (ref J16) (pin 11)))
    (net (code 58) (name "Net-(C2-Pad1)")
      (node (ref C2) (pin 1))
      (node (ref C4) (pin 1))
      (node (ref U1) (pin 3))
      (node (ref J2) (pin 2))
      (node (ref U3) (pin 3)))
    (net (code 59) (name SCL)
      (node (ref U6) (pin 1))
      (node (ref U7) (pin 10))
      (node (ref U6) (pin 10))
      (node (ref J3) (pin 5))
      (node (ref R9) (pin 2))
      (node (ref J16) (pin 3))
      (node (ref U5) (pin 10))
      (node (ref U4) (pin 10)))))