G04 #@! TF.FileFunction,Copper,L2,Bot,Signal*
%FSLAX46Y46*%
G04 Gerber Fmt 4.6, Leading zero omitted, Abs format (unit mm)*
G04 Created by KiCad (PCBNEW 4.0.7-e2-6376~58~ubuntu16.04.1) date Wed Sep  5 16:50:28 2018*
%MOMM*%
%LPD*%
G01*
G04 APERTURE LIST*
%ADD10C,0.100000*%
%ADD11R,3.500000X1.600000*%
%ADD12R,1.700000X1.700000*%
%ADD13O,1.700000X1.700000*%
%ADD14O,1.998980X1.998980*%
%ADD15R,1.998980X1.998980*%
%ADD16R,1.397000X1.397000*%
%ADD17C,1.397000*%
%ADD18C,2.000000*%
%ADD19R,2.000000X3.800000*%
%ADD20R,2.000000X1.500000*%
%ADD21C,2.400000*%
%ADD22R,2.400000X2.400000*%
%ADD23C,0.520000*%
%ADD24C,0.508000*%
%ADD25C,0.175000*%
%ADD26C,0.300000*%
%ADD27C,0.254000*%
G04 APERTURE END LIST*
D10*
D11*
X141050000Y-95250000D03*
X146450000Y-95250000D03*
X141050000Y-54500000D03*
X146450000Y-54500000D03*
X141050000Y-70750000D03*
X146450000Y-70750000D03*
X141050000Y-79000000D03*
X146450000Y-79000000D03*
D12*
X179870000Y-76500000D03*
D13*
X177330000Y-76500000D03*
X174790000Y-76500000D03*
X172250000Y-76500000D03*
X169710000Y-76500000D03*
X167170000Y-76500000D03*
X164630000Y-76500000D03*
X162090000Y-76500000D03*
D12*
X174040000Y-52500000D03*
D13*
X171500000Y-52500000D03*
X168960000Y-52500000D03*
X166420000Y-52500000D03*
D14*
X128640000Y-106350000D03*
D15*
X126100000Y-106350000D03*
D14*
X136700000Y-106350000D03*
D15*
X134160000Y-106350000D03*
D14*
X144840000Y-106350000D03*
D15*
X142300000Y-106350000D03*
D14*
X152840000Y-106350000D03*
D15*
X150300000Y-106350000D03*
D14*
X160840000Y-106350000D03*
D15*
X158300000Y-106350000D03*
D14*
X168840000Y-106350000D03*
D15*
X166300000Y-106350000D03*
D14*
X176700000Y-106350000D03*
D15*
X174160000Y-106350000D03*
D14*
X184840000Y-106350000D03*
D15*
X182300000Y-106350000D03*
D16*
X173200000Y-62280000D03*
D17*
X173200000Y-59740000D03*
X173200000Y-57200000D03*
D18*
X131750000Y-52000000D03*
X131750000Y-56500000D03*
X125250000Y-52000000D03*
X125250000Y-56500000D03*
D16*
X173200000Y-71480000D03*
D17*
X173200000Y-68940000D03*
X173200000Y-66400000D03*
D19*
X146900000Y-62500000D03*
D20*
X140600000Y-62500000D03*
X140600000Y-60200000D03*
X140600000Y-64800000D03*
D19*
X146900000Y-87250000D03*
D20*
X140600000Y-87250000D03*
X140600000Y-84950000D03*
X140600000Y-89550000D03*
D21*
X127250000Y-89250000D03*
D22*
X127250000Y-85750000D03*
D23*
X147178959Y-97383601D03*
X186000000Y-101250000D03*
X170000000Y-101000000D03*
X137000000Y-100500000D03*
X154000000Y-101250000D03*
D24*
X164521785Y-56607188D03*
X164506761Y-55345411D03*
X164557025Y-69620963D03*
D23*
X143750000Y-96000000D03*
X186800000Y-99000000D03*
X155600000Y-98400000D03*
X172000000Y-98200000D03*
X138400000Y-95800000D03*
D24*
X175458146Y-65538086D03*
X163200000Y-64200000D03*
X163000000Y-52800000D03*
X165764652Y-64969287D03*
X165200000Y-65600000D03*
X163750000Y-54000000D03*
X159200000Y-92400000D03*
X159200000Y-94800000D03*
X158250000Y-63500000D03*
X183600000Y-95000000D03*
X164600000Y-83200000D03*
D25*
X164852812Y-56607188D02*
X164521785Y-56607188D01*
X168960000Y-52500000D02*
X164852812Y-56607188D01*
X164506761Y-54986201D02*
X164506761Y-55345411D01*
X164506761Y-54413239D02*
X164506761Y-54986201D01*
X166420000Y-52500000D02*
X164506761Y-54413239D01*
X164811024Y-69366964D02*
X164557025Y-69620963D01*
X165237988Y-68940000D02*
X164811024Y-69366964D01*
X173200000Y-68940000D02*
X165237988Y-68940000D01*
D26*
X173200000Y-57200000D02*
X171500000Y-55500000D01*
X171500000Y-55500000D02*
X171500000Y-52500000D01*
X133750000Y-82996174D02*
X133750000Y-80500000D01*
X133750000Y-80500000D02*
X133750000Y-57500000D01*
X141050000Y-79000000D02*
X135250000Y-79000000D01*
X135250000Y-79000000D02*
X133750000Y-80500000D01*
X127250000Y-89300000D02*
X127446174Y-89300000D01*
X127446174Y-89300000D02*
X133750000Y-82996174D01*
X133750000Y-57500000D02*
X136750000Y-54500000D01*
X136750000Y-54500000D02*
X141050000Y-54500000D01*
X140600000Y-60200000D02*
X140600000Y-58578519D01*
X140600000Y-58578519D02*
X141050000Y-58128519D01*
X141050000Y-58128519D02*
X141050000Y-54500000D01*
X141050000Y-79000000D02*
X141050000Y-82933964D01*
X141050000Y-82933964D02*
X140600000Y-83383964D01*
X140600000Y-83383964D02*
X140600000Y-84950000D01*
X173200000Y-62280000D02*
X151825678Y-62280000D01*
X151825678Y-62280000D02*
X143355678Y-70750000D01*
X143355678Y-70750000D02*
X143100000Y-70750000D01*
X143100000Y-70750000D02*
X141050000Y-70750000D01*
X140600000Y-62500000D02*
X142149684Y-62500000D01*
X142149684Y-62500000D02*
X142937928Y-63288244D01*
X142937928Y-63288244D02*
X142937928Y-65750993D01*
X142937928Y-65750993D02*
X141050000Y-67638921D01*
X141050000Y-67638921D02*
X141050000Y-70750000D01*
X143750000Y-96000000D02*
X143084258Y-96000000D01*
X143084258Y-96000000D02*
X142334258Y-95250000D01*
X142334258Y-95250000D02*
X141050000Y-95250000D01*
X170400000Y-99600000D02*
X186200000Y-99600000D01*
X186200000Y-99600000D02*
X186800000Y-99000000D01*
X154400000Y-99600000D02*
X170400000Y-99600000D01*
X144300000Y-99600000D02*
X154400000Y-99600000D01*
X154400000Y-99600000D02*
X155600000Y-98400000D01*
X170400000Y-99600000D02*
X170600000Y-99600000D01*
X170600000Y-99600000D02*
X172000000Y-98200000D01*
X141050000Y-95250000D02*
X141050000Y-96350000D01*
X141050000Y-96350000D02*
X144300000Y-99600000D01*
X141050000Y-95250000D02*
X138950000Y-95250000D01*
X138950000Y-95250000D02*
X138400000Y-95800000D01*
X162090000Y-76500000D02*
X143340000Y-95250000D01*
X143340000Y-95250000D02*
X141050000Y-95250000D01*
X140600000Y-87250000D02*
X141900000Y-87250000D01*
X141900000Y-87250000D02*
X142527589Y-87877589D01*
X142527589Y-87877589D02*
X142527589Y-90898647D01*
X142527589Y-90898647D02*
X141050000Y-92376236D01*
X141050000Y-92376236D02*
X141050000Y-95250000D01*
D25*
X174120060Y-64200000D02*
X175204147Y-65284087D01*
X175204147Y-65284087D02*
X175458146Y-65538086D01*
X163200000Y-64200000D02*
X174120060Y-64200000D01*
X163000000Y-52800000D02*
X163000000Y-59600000D01*
X163000000Y-59600000D02*
X164516661Y-61116661D01*
X164516661Y-61116661D02*
X174193167Y-61116661D01*
X174193167Y-61116661D02*
X177330000Y-64253494D01*
X177330000Y-64253494D02*
X177330000Y-75297919D01*
X177330000Y-75297919D02*
X177330000Y-76500000D01*
X173685777Y-64969287D02*
X166123862Y-64969287D01*
X175082237Y-66365747D02*
X173685777Y-64969287D01*
X174790000Y-76500000D02*
X175082237Y-76207763D01*
X166123862Y-64969287D02*
X165764652Y-64969287D01*
X175082237Y-76207763D02*
X175082237Y-66365747D01*
X165200000Y-65600000D02*
X167227655Y-67627655D01*
X167227655Y-67627655D02*
X173750931Y-67627655D01*
X174645092Y-74104908D02*
X173099999Y-75650001D01*
X174645092Y-68521816D02*
X174645092Y-74104908D01*
X173750931Y-67627655D02*
X174645092Y-68521816D01*
X173099999Y-75650001D02*
X172250000Y-76500000D01*
X169710000Y-76500000D02*
X171568953Y-78358953D01*
X182094900Y-64327925D02*
X176069945Y-58302970D01*
X163750000Y-57250000D02*
X163750000Y-54000000D01*
X171568953Y-78358953D02*
X181047603Y-78358953D01*
X164802970Y-58302970D02*
X163750000Y-57250000D01*
X181047603Y-78358953D02*
X182094900Y-77311656D01*
X182094900Y-77311656D02*
X182094900Y-64327925D01*
X176069945Y-58302970D02*
X164802970Y-58302970D01*
X159200000Y-94800000D02*
X159200000Y-92400000D01*
X158250000Y-63500000D02*
X158250000Y-67580000D01*
X158250000Y-67580000D02*
X167170000Y-76500000D01*
X164600000Y-83200000D02*
X176400000Y-95000000D01*
X176400000Y-95000000D02*
X183600000Y-95000000D01*
D27*
G36*
X124277073Y-50847468D02*
X125250000Y-51820395D01*
X126222927Y-50847468D01*
X126172102Y-50710000D01*
X130827898Y-50710000D01*
X130777073Y-50847468D01*
X131750000Y-51820395D01*
X132722927Y-50847468D01*
X132672102Y-50710000D01*
X186430070Y-50710000D01*
X186605655Y-50744926D01*
X186695225Y-50804774D01*
X186755074Y-50894345D01*
X186790000Y-51069930D01*
X186790000Y-98104991D01*
X186622755Y-98104845D01*
X186293686Y-98240814D01*
X186041698Y-98492361D01*
X185931078Y-98758764D01*
X185874842Y-98815000D01*
X172650753Y-98815000D01*
X172758302Y-98707639D01*
X172894844Y-98378808D01*
X172895155Y-98022755D01*
X172759186Y-97693686D01*
X172507639Y-97441698D01*
X172178808Y-97305156D01*
X171822755Y-97304845D01*
X171493686Y-97440814D01*
X171241698Y-97692361D01*
X171131078Y-97958764D01*
X170274842Y-98815000D01*
X156396769Y-98815000D01*
X156494844Y-98578808D01*
X156495155Y-98222755D01*
X156359186Y-97893686D01*
X156107639Y-97641698D01*
X155778808Y-97505156D01*
X155422755Y-97504845D01*
X155093686Y-97640814D01*
X154841698Y-97892361D01*
X154731078Y-98158764D01*
X154074842Y-98815000D01*
X144625158Y-98815000D01*
X142507598Y-96697440D01*
X142742238Y-96697440D01*
X142783851Y-96725245D01*
X143084258Y-96785000D01*
X143306657Y-96785000D01*
X143571192Y-96894844D01*
X143927245Y-96895155D01*
X144256314Y-96759186D01*
X144401909Y-96613846D01*
X144573691Y-96685000D01*
X146164250Y-96685000D01*
X146323000Y-96526250D01*
X146323000Y-95377000D01*
X146577000Y-95377000D01*
X146577000Y-96526250D01*
X146735750Y-96685000D01*
X148326309Y-96685000D01*
X148559698Y-96588327D01*
X148738327Y-96409699D01*
X148835000Y-96176310D01*
X148835000Y-95535750D01*
X148676250Y-95377000D01*
X146577000Y-95377000D01*
X146323000Y-95377000D01*
X146303000Y-95377000D01*
X146303000Y-95123000D01*
X146323000Y-95123000D01*
X146323000Y-93973750D01*
X146577000Y-93973750D01*
X146577000Y-95123000D01*
X148676250Y-95123000D01*
X148835000Y-94964250D01*
X148835000Y-94323690D01*
X148738327Y-94090301D01*
X148559698Y-93911673D01*
X148326309Y-93815000D01*
X146735750Y-93815000D01*
X146577000Y-93973750D01*
X146323000Y-93973750D01*
X146164250Y-93815000D01*
X145885158Y-93815000D01*
X147124101Y-92576057D01*
X158310846Y-92576057D01*
X158445903Y-92902920D01*
X158477500Y-92934572D01*
X158477500Y-94265100D01*
X158446782Y-94295764D01*
X158311154Y-94622391D01*
X158310846Y-94976057D01*
X158445903Y-95302920D01*
X158695764Y-95553218D01*
X159022391Y-95688846D01*
X159376057Y-95689154D01*
X159702920Y-95554097D01*
X159953218Y-95304236D01*
X160088846Y-94977609D01*
X160089154Y-94623943D01*
X159954097Y-94297080D01*
X159922500Y-94265428D01*
X159922500Y-92934900D01*
X159953218Y-92904236D01*
X160088846Y-92577609D01*
X160089154Y-92223943D01*
X159954097Y-91897080D01*
X159704236Y-91646782D01*
X159377609Y-91511154D01*
X159023943Y-91510846D01*
X158697080Y-91645903D01*
X158446782Y-91895764D01*
X158311154Y-92222391D01*
X158310846Y-92576057D01*
X147124101Y-92576057D01*
X156324101Y-83376057D01*
X163710846Y-83376057D01*
X163845903Y-83702920D01*
X164095764Y-83953218D01*
X164422391Y-84088846D01*
X164467115Y-84088885D01*
X175889115Y-95510885D01*
X176123511Y-95667503D01*
X176400000Y-95722500D01*
X183065100Y-95722500D01*
X183095764Y-95753218D01*
X183422391Y-95888846D01*
X183776057Y-95889154D01*
X184102920Y-95754097D01*
X184353218Y-95504236D01*
X184488846Y-95177609D01*
X184489154Y-94823943D01*
X184354097Y-94497080D01*
X184104236Y-94246782D01*
X183777609Y-94111154D01*
X183423943Y-94110846D01*
X183097080Y-94245903D01*
X183065428Y-94277500D01*
X176699270Y-94277500D01*
X165489116Y-83067346D01*
X165489154Y-83023943D01*
X165354097Y-82697080D01*
X165104236Y-82446782D01*
X164777609Y-82311154D01*
X164423943Y-82310846D01*
X164097080Y-82445903D01*
X163846782Y-82695764D01*
X163711154Y-83022391D01*
X163710846Y-83376057D01*
X156324101Y-83376057D01*
X161753082Y-77947076D01*
X162090000Y-78014093D01*
X162658285Y-77901054D01*
X163140054Y-77579147D01*
X163367702Y-77238447D01*
X163434817Y-77381358D01*
X163863076Y-77771645D01*
X164273110Y-77941476D01*
X164503000Y-77820155D01*
X164503000Y-76627000D01*
X164483000Y-76627000D01*
X164483000Y-76373000D01*
X164503000Y-76373000D01*
X164503000Y-75179845D01*
X164273110Y-75058524D01*
X163863076Y-75228355D01*
X163434817Y-75618642D01*
X163367702Y-75761553D01*
X163140054Y-75420853D01*
X162658285Y-75098946D01*
X162090000Y-74985907D01*
X161521715Y-75098946D01*
X161039946Y-75420853D01*
X160718039Y-75902622D01*
X160605000Y-76470907D01*
X160605000Y-76529093D01*
X160662363Y-76817479D01*
X148547440Y-88932402D01*
X148547440Y-85350000D01*
X148503162Y-85114683D01*
X148364090Y-84898559D01*
X148151890Y-84753569D01*
X147900000Y-84702560D01*
X145900000Y-84702560D01*
X145664683Y-84746838D01*
X145448559Y-84885910D01*
X145303569Y-85098110D01*
X145252560Y-85350000D01*
X145252560Y-89150000D01*
X145296838Y-89385317D01*
X145435910Y-89601441D01*
X145648110Y-89746431D01*
X145900000Y-89797440D01*
X147682402Y-89797440D01*
X143349129Y-94130713D01*
X143264090Y-93998559D01*
X143051890Y-93853569D01*
X142800000Y-93802560D01*
X141835000Y-93802560D01*
X141835000Y-92701394D01*
X143082668Y-91453726D01*
X143252833Y-91199054D01*
X143252834Y-91199053D01*
X143312589Y-90898647D01*
X143312589Y-87877589D01*
X143252834Y-87577183D01*
X143082668Y-87322510D01*
X142455079Y-86694921D01*
X142247440Y-86556181D01*
X142247440Y-86500000D01*
X142203162Y-86264683D01*
X142096241Y-86098523D01*
X142196431Y-85951890D01*
X142247440Y-85700000D01*
X142247440Y-84200000D01*
X142203162Y-83964683D01*
X142064090Y-83748559D01*
X141851890Y-83603569D01*
X141600000Y-83552560D01*
X141541562Y-83552560D01*
X141605079Y-83489043D01*
X141775245Y-83234371D01*
X141835000Y-82933964D01*
X141835000Y-80447440D01*
X142800000Y-80447440D01*
X143035317Y-80403162D01*
X143251441Y-80264090D01*
X143396431Y-80051890D01*
X143447440Y-79800000D01*
X143447440Y-79285750D01*
X144065000Y-79285750D01*
X144065000Y-79926310D01*
X144161673Y-80159699D01*
X144340302Y-80338327D01*
X144573691Y-80435000D01*
X146164250Y-80435000D01*
X146323000Y-80276250D01*
X146323000Y-79127000D01*
X146577000Y-79127000D01*
X146577000Y-80276250D01*
X146735750Y-80435000D01*
X148326309Y-80435000D01*
X148559698Y-80338327D01*
X148738327Y-80159699D01*
X148835000Y-79926310D01*
X148835000Y-79285750D01*
X148676250Y-79127000D01*
X146577000Y-79127000D01*
X146323000Y-79127000D01*
X144223750Y-79127000D01*
X144065000Y-79285750D01*
X143447440Y-79285750D01*
X143447440Y-78200000D01*
X143423674Y-78073690D01*
X144065000Y-78073690D01*
X144065000Y-78714250D01*
X144223750Y-78873000D01*
X146323000Y-78873000D01*
X146323000Y-77723750D01*
X146577000Y-77723750D01*
X146577000Y-78873000D01*
X148676250Y-78873000D01*
X148835000Y-78714250D01*
X148835000Y-78073690D01*
X148738327Y-77840301D01*
X148559698Y-77661673D01*
X148326309Y-77565000D01*
X146735750Y-77565000D01*
X146577000Y-77723750D01*
X146323000Y-77723750D01*
X146164250Y-77565000D01*
X144573691Y-77565000D01*
X144340302Y-77661673D01*
X144161673Y-77840301D01*
X144065000Y-78073690D01*
X143423674Y-78073690D01*
X143403162Y-77964683D01*
X143264090Y-77748559D01*
X143051890Y-77603569D01*
X142800000Y-77552560D01*
X139300000Y-77552560D01*
X139064683Y-77596838D01*
X138848559Y-77735910D01*
X138703569Y-77948110D01*
X138652560Y-78200000D01*
X138652560Y-78215000D01*
X135250000Y-78215000D01*
X134949593Y-78274755D01*
X134694921Y-78444921D01*
X134535000Y-78604842D01*
X134535000Y-65085750D01*
X138965000Y-65085750D01*
X138965000Y-65676310D01*
X139061673Y-65909699D01*
X139240302Y-66088327D01*
X139473691Y-66185000D01*
X140314250Y-66185000D01*
X140473000Y-66026250D01*
X140473000Y-64927000D01*
X139123750Y-64927000D01*
X138965000Y-65085750D01*
X134535000Y-65085750D01*
X134535000Y-57825158D01*
X137075158Y-55285000D01*
X138652560Y-55285000D01*
X138652560Y-55300000D01*
X138696838Y-55535317D01*
X138835910Y-55751441D01*
X139048110Y-55896431D01*
X139300000Y-55947440D01*
X140265000Y-55947440D01*
X140265000Y-57803361D01*
X140044921Y-58023440D01*
X139874755Y-58278112D01*
X139864468Y-58329827D01*
X139815000Y-58578519D01*
X139815000Y-58802560D01*
X139600000Y-58802560D01*
X139364683Y-58846838D01*
X139148559Y-58985910D01*
X139003569Y-59198110D01*
X138952560Y-59450000D01*
X138952560Y-60950000D01*
X138996838Y-61185317D01*
X139103759Y-61351477D01*
X139003569Y-61498110D01*
X138952560Y-61750000D01*
X138952560Y-63250000D01*
X138996838Y-63485317D01*
X139102482Y-63649492D01*
X139061673Y-63690301D01*
X138965000Y-63923690D01*
X138965000Y-64514250D01*
X139123750Y-64673000D01*
X140473000Y-64673000D01*
X140473000Y-64653000D01*
X140727000Y-64653000D01*
X140727000Y-64673000D01*
X140747000Y-64673000D01*
X140747000Y-64927000D01*
X140727000Y-64927000D01*
X140727000Y-66026250D01*
X140885750Y-66185000D01*
X141393763Y-66185000D01*
X140494921Y-67083842D01*
X140324755Y-67338514D01*
X140278749Y-67569800D01*
X140265000Y-67638921D01*
X140265000Y-69302560D01*
X139300000Y-69302560D01*
X139064683Y-69346838D01*
X138848559Y-69485910D01*
X138703569Y-69698110D01*
X138652560Y-69950000D01*
X138652560Y-71550000D01*
X138696838Y-71785317D01*
X138835910Y-72001441D01*
X139048110Y-72146431D01*
X139300000Y-72197440D01*
X142800000Y-72197440D01*
X143035317Y-72153162D01*
X143251441Y-72014090D01*
X143396431Y-71801890D01*
X143447440Y-71550000D01*
X143447440Y-71516747D01*
X143656085Y-71475245D01*
X143910757Y-71305079D01*
X144065000Y-71150836D01*
X144065000Y-71676310D01*
X144161673Y-71909699D01*
X144340302Y-72088327D01*
X144573691Y-72185000D01*
X146164250Y-72185000D01*
X146323000Y-72026250D01*
X146323000Y-70877000D01*
X146577000Y-70877000D01*
X146577000Y-72026250D01*
X146735750Y-72185000D01*
X148326309Y-72185000D01*
X148559698Y-72088327D01*
X148738327Y-71909699D01*
X148835000Y-71676310D01*
X148835000Y-71035750D01*
X148676250Y-70877000D01*
X146577000Y-70877000D01*
X146323000Y-70877000D01*
X146303000Y-70877000D01*
X146303000Y-70623000D01*
X146323000Y-70623000D01*
X146323000Y-69473750D01*
X146577000Y-69473750D01*
X146577000Y-70623000D01*
X148676250Y-70623000D01*
X148835000Y-70464250D01*
X148835000Y-69823690D01*
X148738327Y-69590301D01*
X148559698Y-69411673D01*
X148326309Y-69315000D01*
X146735750Y-69315000D01*
X146577000Y-69473750D01*
X146323000Y-69473750D01*
X146164250Y-69315000D01*
X145900836Y-69315000D01*
X152150836Y-63065000D01*
X157468033Y-63065000D01*
X157361154Y-63322391D01*
X157360846Y-63676057D01*
X157495903Y-64002920D01*
X157527500Y-64034572D01*
X157527500Y-67580000D01*
X157582497Y-67856489D01*
X157739115Y-68090885D01*
X164803523Y-75155293D01*
X164757000Y-75179845D01*
X164757000Y-76373000D01*
X164777000Y-76373000D01*
X164777000Y-76627000D01*
X164757000Y-76627000D01*
X164757000Y-77820155D01*
X164986890Y-77941476D01*
X165396924Y-77771645D01*
X165825183Y-77381358D01*
X165892298Y-77238447D01*
X166119946Y-77579147D01*
X166601715Y-77901054D01*
X167170000Y-78014093D01*
X167738285Y-77901054D01*
X168220054Y-77579147D01*
X168440000Y-77249974D01*
X168659946Y-77579147D01*
X169141715Y-77901054D01*
X169710000Y-78014093D01*
X170120642Y-77932411D01*
X171058066Y-78869835D01*
X171058068Y-78869838D01*
X171292464Y-79026456D01*
X171338337Y-79035581D01*
X171568953Y-79081454D01*
X171568958Y-79081453D01*
X181047603Y-79081453D01*
X181324092Y-79026456D01*
X181558488Y-78869838D01*
X182605782Y-77822543D01*
X182605785Y-77822541D01*
X182762403Y-77588145D01*
X182771528Y-77542272D01*
X182817401Y-77311656D01*
X182817400Y-77311651D01*
X182817400Y-64327925D01*
X182762403Y-64051436D01*
X182605785Y-63817040D01*
X176580830Y-57792085D01*
X176346434Y-57635467D01*
X176069945Y-57580470D01*
X174485907Y-57580470D01*
X174533268Y-57466413D01*
X174533731Y-56935914D01*
X174331146Y-56445620D01*
X173956353Y-56070173D01*
X173466413Y-55866732D01*
X172976462Y-55866304D01*
X172285000Y-55174842D01*
X172285000Y-53756250D01*
X172550054Y-53579147D01*
X172579403Y-53535223D01*
X172651673Y-53709698D01*
X172830301Y-53888327D01*
X173063690Y-53985000D01*
X173754250Y-53985000D01*
X173913000Y-53826250D01*
X173913000Y-52627000D01*
X174167000Y-52627000D01*
X174167000Y-53826250D01*
X174325750Y-53985000D01*
X175016310Y-53985000D01*
X175249699Y-53888327D01*
X175428327Y-53709698D01*
X175525000Y-53476309D01*
X175525000Y-52785750D01*
X175366250Y-52627000D01*
X174167000Y-52627000D01*
X173913000Y-52627000D01*
X173893000Y-52627000D01*
X173893000Y-52373000D01*
X173913000Y-52373000D01*
X173913000Y-51173750D01*
X174167000Y-51173750D01*
X174167000Y-52373000D01*
X175366250Y-52373000D01*
X175525000Y-52214250D01*
X175525000Y-51523691D01*
X175428327Y-51290302D01*
X175249699Y-51111673D01*
X175016310Y-51015000D01*
X174325750Y-51015000D01*
X174167000Y-51173750D01*
X173913000Y-51173750D01*
X173754250Y-51015000D01*
X173063690Y-51015000D01*
X172830301Y-51111673D01*
X172651673Y-51290302D01*
X172579403Y-51464777D01*
X172550054Y-51420853D01*
X172068285Y-51098946D01*
X171500000Y-50985907D01*
X170931715Y-51098946D01*
X170449946Y-51420853D01*
X170230000Y-51750026D01*
X170010054Y-51420853D01*
X169528285Y-51098946D01*
X168960000Y-50985907D01*
X168391715Y-51098946D01*
X167909946Y-51420853D01*
X167690000Y-51750026D01*
X167470054Y-51420853D01*
X166988285Y-51098946D01*
X166420000Y-50985907D01*
X165851715Y-51098946D01*
X165369946Y-51420853D01*
X165048039Y-51902622D01*
X164935000Y-52470907D01*
X164935000Y-52529093D01*
X165007028Y-52891202D01*
X164452669Y-53445562D01*
X164254236Y-53246782D01*
X163927609Y-53111154D01*
X163833427Y-53111072D01*
X163888846Y-52977609D01*
X163889154Y-52623943D01*
X163754097Y-52297080D01*
X163504236Y-52046782D01*
X163177609Y-51911154D01*
X162823943Y-51910846D01*
X162497080Y-52045903D01*
X162246782Y-52295764D01*
X162111154Y-52622391D01*
X162110846Y-52976057D01*
X162245903Y-53302920D01*
X162277500Y-53334572D01*
X162277500Y-59600000D01*
X162332497Y-59876489D01*
X162489115Y-60110885D01*
X163873231Y-61495000D01*
X151825678Y-61495000D01*
X151525272Y-61554755D01*
X151270599Y-61724921D01*
X148535231Y-64460289D01*
X148547440Y-64400000D01*
X148547440Y-60600000D01*
X148503162Y-60364683D01*
X148364090Y-60148559D01*
X148151890Y-60003569D01*
X147900000Y-59952560D01*
X145900000Y-59952560D01*
X145664683Y-59996838D01*
X145448559Y-60135910D01*
X145303569Y-60348110D01*
X145252560Y-60600000D01*
X145252560Y-64400000D01*
X145296838Y-64635317D01*
X145435910Y-64851441D01*
X145648110Y-64996431D01*
X145900000Y-65047440D01*
X147900000Y-65047440D01*
X147959224Y-65036296D01*
X143355267Y-69640253D01*
X143264090Y-69498559D01*
X143051890Y-69353569D01*
X142800000Y-69302560D01*
X141835000Y-69302560D01*
X141835000Y-67964079D01*
X143493007Y-66306072D01*
X143663173Y-66051400D01*
X143722928Y-65750993D01*
X143722928Y-63288244D01*
X143676548Y-63055079D01*
X143663173Y-62987837D01*
X143493007Y-62733165D01*
X142704763Y-61944921D01*
X142450091Y-61774755D01*
X142244399Y-61733840D01*
X142203162Y-61514683D01*
X142096241Y-61348523D01*
X142196431Y-61201890D01*
X142247440Y-60950000D01*
X142247440Y-59450000D01*
X142203162Y-59214683D01*
X142064090Y-58998559D01*
X141851890Y-58853569D01*
X141600000Y-58802560D01*
X141486117Y-58802560D01*
X141605079Y-58683598D01*
X141775245Y-58428926D01*
X141835000Y-58128519D01*
X141835000Y-55947440D01*
X142800000Y-55947440D01*
X143035317Y-55903162D01*
X143251441Y-55764090D01*
X143396431Y-55551890D01*
X143447440Y-55300000D01*
X143447440Y-54785750D01*
X144065000Y-54785750D01*
X144065000Y-55426310D01*
X144161673Y-55659699D01*
X144340302Y-55838327D01*
X144573691Y-55935000D01*
X146164250Y-55935000D01*
X146323000Y-55776250D01*
X146323000Y-54627000D01*
X146577000Y-54627000D01*
X146577000Y-55776250D01*
X146735750Y-55935000D01*
X148326309Y-55935000D01*
X148559698Y-55838327D01*
X148738327Y-55659699D01*
X148835000Y-55426310D01*
X148835000Y-54785750D01*
X148676250Y-54627000D01*
X146577000Y-54627000D01*
X146323000Y-54627000D01*
X144223750Y-54627000D01*
X144065000Y-54785750D01*
X143447440Y-54785750D01*
X143447440Y-53700000D01*
X143423674Y-53573690D01*
X144065000Y-53573690D01*
X144065000Y-54214250D01*
X144223750Y-54373000D01*
X146323000Y-54373000D01*
X146323000Y-53223750D01*
X146577000Y-53223750D01*
X146577000Y-54373000D01*
X148676250Y-54373000D01*
X148835000Y-54214250D01*
X148835000Y-53573690D01*
X148738327Y-53340301D01*
X148559698Y-53161673D01*
X148326309Y-53065000D01*
X146735750Y-53065000D01*
X146577000Y-53223750D01*
X146323000Y-53223750D01*
X146164250Y-53065000D01*
X144573691Y-53065000D01*
X144340302Y-53161673D01*
X144161673Y-53340301D01*
X144065000Y-53573690D01*
X143423674Y-53573690D01*
X143403162Y-53464683D01*
X143264090Y-53248559D01*
X143051890Y-53103569D01*
X142800000Y-53052560D01*
X139300000Y-53052560D01*
X139064683Y-53096838D01*
X138848559Y-53235910D01*
X138703569Y-53448110D01*
X138652560Y-53700000D01*
X138652560Y-53715000D01*
X136750000Y-53715000D01*
X136449594Y-53774755D01*
X136194921Y-53944921D01*
X133384779Y-56755063D01*
X133385284Y-56176205D01*
X133136894Y-55575057D01*
X132677363Y-55114722D01*
X132076648Y-54865284D01*
X131426205Y-54864716D01*
X130825057Y-55113106D01*
X130364722Y-55572637D01*
X130115284Y-56173352D01*
X130114716Y-56823795D01*
X130363106Y-57424943D01*
X130822637Y-57885278D01*
X131423352Y-58134716D01*
X132073795Y-58135284D01*
X132674943Y-57886894D01*
X132965000Y-57597344D01*
X132965000Y-82671016D01*
X129085000Y-86551016D01*
X129085000Y-86035750D01*
X128926250Y-85877000D01*
X127377000Y-85877000D01*
X127377000Y-85897000D01*
X127123000Y-85897000D01*
X127123000Y-85877000D01*
X125573750Y-85877000D01*
X125415000Y-86035750D01*
X125415000Y-87076309D01*
X125511673Y-87309698D01*
X125690301Y-87488327D01*
X125923690Y-87585000D01*
X126474395Y-87585000D01*
X126211914Y-87693455D01*
X125695270Y-88209199D01*
X125415319Y-88883395D01*
X125414682Y-89613403D01*
X125693455Y-90288086D01*
X126209199Y-90804730D01*
X126883395Y-91084681D01*
X127613403Y-91085318D01*
X128288086Y-90806545D01*
X128804730Y-90290801D01*
X128993683Y-89835750D01*
X138965000Y-89835750D01*
X138965000Y-90426310D01*
X139061673Y-90659699D01*
X139240302Y-90838327D01*
X139473691Y-90935000D01*
X140314250Y-90935000D01*
X140473000Y-90776250D01*
X140473000Y-89677000D01*
X139123750Y-89677000D01*
X138965000Y-89835750D01*
X128993683Y-89835750D01*
X129084681Y-89616605D01*
X129085318Y-88886597D01*
X129051524Y-88804808D01*
X134305079Y-83551253D01*
X134475245Y-83296581D01*
X134535000Y-82996174D01*
X134535000Y-80825158D01*
X135575158Y-79785000D01*
X138652560Y-79785000D01*
X138652560Y-79800000D01*
X138696838Y-80035317D01*
X138835910Y-80251441D01*
X139048110Y-80396431D01*
X139300000Y-80447440D01*
X140265000Y-80447440D01*
X140265000Y-82608806D01*
X140044921Y-82828885D01*
X139874755Y-83083557D01*
X139874755Y-83083558D01*
X139815000Y-83383964D01*
X139815000Y-83552560D01*
X139600000Y-83552560D01*
X139364683Y-83596838D01*
X139148559Y-83735910D01*
X139003569Y-83948110D01*
X138952560Y-84200000D01*
X138952560Y-85700000D01*
X138996838Y-85935317D01*
X139103759Y-86101477D01*
X139003569Y-86248110D01*
X138952560Y-86500000D01*
X138952560Y-88000000D01*
X138996838Y-88235317D01*
X139102482Y-88399492D01*
X139061673Y-88440301D01*
X138965000Y-88673690D01*
X138965000Y-89264250D01*
X139123750Y-89423000D01*
X140473000Y-89423000D01*
X140473000Y-89403000D01*
X140727000Y-89403000D01*
X140727000Y-89423000D01*
X140747000Y-89423000D01*
X140747000Y-89677000D01*
X140727000Y-89677000D01*
X140727000Y-90776250D01*
X140885750Y-90935000D01*
X141381078Y-90935000D01*
X140494921Y-91821157D01*
X140324755Y-92075829D01*
X140295602Y-92222391D01*
X140265000Y-92376236D01*
X140265000Y-93802560D01*
X139300000Y-93802560D01*
X139064683Y-93846838D01*
X138848559Y-93985910D01*
X138703569Y-94198110D01*
X138652560Y-94450000D01*
X138652560Y-94524165D01*
X138649594Y-94524755D01*
X138394921Y-94694921D01*
X138394919Y-94694924D01*
X138158411Y-94931431D01*
X137893686Y-95040814D01*
X137641698Y-95292361D01*
X137505156Y-95621192D01*
X137504845Y-95977245D01*
X137640814Y-96306314D01*
X137892361Y-96558302D01*
X138221192Y-96694844D01*
X138577245Y-96695155D01*
X138906314Y-96559186D01*
X138912047Y-96553463D01*
X139048110Y-96646431D01*
X139300000Y-96697440D01*
X140356181Y-96697440D01*
X140494921Y-96905079D01*
X143744921Y-100155079D01*
X143999593Y-100325245D01*
X144300000Y-100385000D01*
X186200000Y-100385000D01*
X186500407Y-100325245D01*
X186755079Y-100155079D01*
X186790000Y-100120158D01*
X186790000Y-108930070D01*
X186755074Y-109105655D01*
X186695225Y-109195226D01*
X186605655Y-109255074D01*
X186430070Y-109290000D01*
X185957005Y-109290000D01*
X186024794Y-109126745D01*
X186025206Y-108655323D01*
X185845180Y-108219628D01*
X185512125Y-107885991D01*
X185465189Y-107866502D01*
X185497514Y-107860072D01*
X186027781Y-107505759D01*
X186382094Y-106975492D01*
X186506512Y-106350000D01*
X186382094Y-105724508D01*
X186027781Y-105194241D01*
X185497514Y-104839928D01*
X184872022Y-104715510D01*
X184807978Y-104715510D01*
X184182486Y-104839928D01*
X183862923Y-105053453D01*
X183763580Y-104899069D01*
X183551380Y-104754079D01*
X183299490Y-104703070D01*
X181300510Y-104703070D01*
X181065193Y-104747348D01*
X180849069Y-104886420D01*
X180704079Y-105098620D01*
X180653070Y-105350510D01*
X180653070Y-107349490D01*
X180697348Y-107584807D01*
X180836420Y-107800931D01*
X181048620Y-107945921D01*
X181300510Y-107996930D01*
X181517322Y-107996930D01*
X181295991Y-108217875D01*
X181115206Y-108653255D01*
X181114794Y-109124677D01*
X181183104Y-109290000D01*
X177817005Y-109290000D01*
X177884794Y-109126745D01*
X177885206Y-108655323D01*
X177705180Y-108219628D01*
X177372125Y-107885991D01*
X177325189Y-107866502D01*
X177357514Y-107860072D01*
X177887781Y-107505759D01*
X178242094Y-106975492D01*
X178366512Y-106350000D01*
X178242094Y-105724508D01*
X177887781Y-105194241D01*
X177357514Y-104839928D01*
X176732022Y-104715510D01*
X176667978Y-104715510D01*
X176042486Y-104839928D01*
X175722923Y-105053453D01*
X175623580Y-104899069D01*
X175411380Y-104754079D01*
X175159490Y-104703070D01*
X173160510Y-104703070D01*
X172925193Y-104747348D01*
X172709069Y-104886420D01*
X172564079Y-105098620D01*
X172513070Y-105350510D01*
X172513070Y-107349490D01*
X172557348Y-107584807D01*
X172696420Y-107800931D01*
X172908620Y-107945921D01*
X173160510Y-107996930D01*
X173377322Y-107996930D01*
X173155991Y-108217875D01*
X172975206Y-108653255D01*
X172974794Y-109124677D01*
X173043104Y-109290000D01*
X169957005Y-109290000D01*
X170024794Y-109126745D01*
X170025206Y-108655323D01*
X169845180Y-108219628D01*
X169512125Y-107885991D01*
X169465189Y-107866502D01*
X169497514Y-107860072D01*
X170027781Y-107505759D01*
X170382094Y-106975492D01*
X170506512Y-106350000D01*
X170382094Y-105724508D01*
X170027781Y-105194241D01*
X169497514Y-104839928D01*
X168872022Y-104715510D01*
X168807978Y-104715510D01*
X168182486Y-104839928D01*
X167862923Y-105053453D01*
X167763580Y-104899069D01*
X167551380Y-104754079D01*
X167299490Y-104703070D01*
X165300510Y-104703070D01*
X165065193Y-104747348D01*
X164849069Y-104886420D01*
X164704079Y-105098620D01*
X164653070Y-105350510D01*
X164653070Y-107349490D01*
X164697348Y-107584807D01*
X164836420Y-107800931D01*
X165048620Y-107945921D01*
X165300510Y-107996930D01*
X165517322Y-107996930D01*
X165295991Y-108217875D01*
X165115206Y-108653255D01*
X165114794Y-109124677D01*
X165183104Y-109290000D01*
X161957005Y-109290000D01*
X162024794Y-109126745D01*
X162025206Y-108655323D01*
X161845180Y-108219628D01*
X161512125Y-107885991D01*
X161465189Y-107866502D01*
X161497514Y-107860072D01*
X162027781Y-107505759D01*
X162382094Y-106975492D01*
X162506512Y-106350000D01*
X162382094Y-105724508D01*
X162027781Y-105194241D01*
X161497514Y-104839928D01*
X160872022Y-104715510D01*
X160807978Y-104715510D01*
X160182486Y-104839928D01*
X159862923Y-105053453D01*
X159763580Y-104899069D01*
X159551380Y-104754079D01*
X159299490Y-104703070D01*
X157300510Y-104703070D01*
X157065193Y-104747348D01*
X156849069Y-104886420D01*
X156704079Y-105098620D01*
X156653070Y-105350510D01*
X156653070Y-107349490D01*
X156697348Y-107584807D01*
X156836420Y-107800931D01*
X157048620Y-107945921D01*
X157300510Y-107996930D01*
X157517322Y-107996930D01*
X157295991Y-108217875D01*
X157115206Y-108653255D01*
X157114794Y-109124677D01*
X157183104Y-109290000D01*
X153957005Y-109290000D01*
X154024794Y-109126745D01*
X154025206Y-108655323D01*
X153845180Y-108219628D01*
X153512125Y-107885991D01*
X153465189Y-107866502D01*
X153497514Y-107860072D01*
X154027781Y-107505759D01*
X154382094Y-106975492D01*
X154506512Y-106350000D01*
X154382094Y-105724508D01*
X154027781Y-105194241D01*
X153497514Y-104839928D01*
X152872022Y-104715510D01*
X152807978Y-104715510D01*
X152182486Y-104839928D01*
X151862923Y-105053453D01*
X151763580Y-104899069D01*
X151551380Y-104754079D01*
X151299490Y-104703070D01*
X149300510Y-104703070D01*
X149065193Y-104747348D01*
X148849069Y-104886420D01*
X148704079Y-105098620D01*
X148653070Y-105350510D01*
X148653070Y-107349490D01*
X148697348Y-107584807D01*
X148836420Y-107800931D01*
X149048620Y-107945921D01*
X149300510Y-107996930D01*
X149517322Y-107996930D01*
X149295991Y-108217875D01*
X149115206Y-108653255D01*
X149114794Y-109124677D01*
X149183104Y-109290000D01*
X145957005Y-109290000D01*
X146024794Y-109126745D01*
X146025206Y-108655323D01*
X145845180Y-108219628D01*
X145512125Y-107885991D01*
X145465189Y-107866502D01*
X145497514Y-107860072D01*
X146027781Y-107505759D01*
X146382094Y-106975492D01*
X146506512Y-106350000D01*
X146382094Y-105724508D01*
X146027781Y-105194241D01*
X145497514Y-104839928D01*
X144872022Y-104715510D01*
X144807978Y-104715510D01*
X144182486Y-104839928D01*
X143862923Y-105053453D01*
X143763580Y-104899069D01*
X143551380Y-104754079D01*
X143299490Y-104703070D01*
X141300510Y-104703070D01*
X141065193Y-104747348D01*
X140849069Y-104886420D01*
X140704079Y-105098620D01*
X140653070Y-105350510D01*
X140653070Y-107349490D01*
X140697348Y-107584807D01*
X140836420Y-107800931D01*
X141048620Y-107945921D01*
X141300510Y-107996930D01*
X141517322Y-107996930D01*
X141295991Y-108217875D01*
X141115206Y-108653255D01*
X141114794Y-109124677D01*
X141183104Y-109290000D01*
X137817005Y-109290000D01*
X137884794Y-109126745D01*
X137885206Y-108655323D01*
X137705180Y-108219628D01*
X137372125Y-107885991D01*
X137325189Y-107866502D01*
X137357514Y-107860072D01*
X137887781Y-107505759D01*
X138242094Y-106975492D01*
X138366512Y-106350000D01*
X138242094Y-105724508D01*
X137887781Y-105194241D01*
X137357514Y-104839928D01*
X136732022Y-104715510D01*
X136667978Y-104715510D01*
X136042486Y-104839928D01*
X135722923Y-105053453D01*
X135623580Y-104899069D01*
X135411380Y-104754079D01*
X135159490Y-104703070D01*
X133160510Y-104703070D01*
X132925193Y-104747348D01*
X132709069Y-104886420D01*
X132564079Y-105098620D01*
X132513070Y-105350510D01*
X132513070Y-107349490D01*
X132557348Y-107584807D01*
X132696420Y-107800931D01*
X132908620Y-107945921D01*
X133160510Y-107996930D01*
X133377322Y-107996930D01*
X133155991Y-108217875D01*
X132975206Y-108653255D01*
X132974794Y-109124677D01*
X133043104Y-109290000D01*
X129757005Y-109290000D01*
X129824794Y-109126745D01*
X129825206Y-108655323D01*
X129645180Y-108219628D01*
X129312125Y-107885991D01*
X129265189Y-107866502D01*
X129297514Y-107860072D01*
X129827781Y-107505759D01*
X130182094Y-106975492D01*
X130306512Y-106350000D01*
X130182094Y-105724508D01*
X129827781Y-105194241D01*
X129297514Y-104839928D01*
X128672022Y-104715510D01*
X128607978Y-104715510D01*
X127982486Y-104839928D01*
X127662923Y-105053453D01*
X127563580Y-104899069D01*
X127351380Y-104754079D01*
X127099490Y-104703070D01*
X125100510Y-104703070D01*
X124865193Y-104747348D01*
X124649069Y-104886420D01*
X124504079Y-105098620D01*
X124453070Y-105350510D01*
X124453070Y-107349490D01*
X124497348Y-107584807D01*
X124636420Y-107800931D01*
X124848620Y-107945921D01*
X125100510Y-107996930D01*
X125317322Y-107996930D01*
X125095991Y-108217875D01*
X124915206Y-108653255D01*
X124914794Y-109124677D01*
X124983104Y-109290000D01*
X123569930Y-109290000D01*
X123394345Y-109255074D01*
X123304774Y-109195225D01*
X123244926Y-109105655D01*
X123210000Y-108930070D01*
X123210000Y-84423691D01*
X125415000Y-84423691D01*
X125415000Y-85464250D01*
X125573750Y-85623000D01*
X127123000Y-85623000D01*
X127123000Y-84073750D01*
X127377000Y-84073750D01*
X127377000Y-85623000D01*
X128926250Y-85623000D01*
X129085000Y-85464250D01*
X129085000Y-84423691D01*
X128988327Y-84190302D01*
X128809699Y-84011673D01*
X128576310Y-83915000D01*
X127535750Y-83915000D01*
X127377000Y-84073750D01*
X127123000Y-84073750D01*
X126964250Y-83915000D01*
X125923690Y-83915000D01*
X125690301Y-84011673D01*
X125511673Y-84190302D01*
X125415000Y-84423691D01*
X123210000Y-84423691D01*
X123210000Y-56823795D01*
X123614716Y-56823795D01*
X123863106Y-57424943D01*
X124322637Y-57885278D01*
X124923352Y-58134716D01*
X125573795Y-58135284D01*
X126174943Y-57886894D01*
X126635278Y-57427363D01*
X126884716Y-56826648D01*
X126885284Y-56176205D01*
X126636894Y-55575057D01*
X126177363Y-55114722D01*
X125576648Y-54865284D01*
X124926205Y-54864716D01*
X124325057Y-55113106D01*
X123864722Y-55572637D01*
X123615284Y-56173352D01*
X123614716Y-56823795D01*
X123210000Y-56823795D01*
X123210000Y-53152532D01*
X124277073Y-53152532D01*
X124375736Y-53419387D01*
X124985461Y-53645908D01*
X125635460Y-53621856D01*
X126124264Y-53419387D01*
X126222927Y-53152532D01*
X130777073Y-53152532D01*
X130875736Y-53419387D01*
X131485461Y-53645908D01*
X132135460Y-53621856D01*
X132624264Y-53419387D01*
X132722927Y-53152532D01*
X131750000Y-52179605D01*
X130777073Y-53152532D01*
X126222927Y-53152532D01*
X125250000Y-52179605D01*
X124277073Y-53152532D01*
X123210000Y-53152532D01*
X123210000Y-51735461D01*
X123604092Y-51735461D01*
X123628144Y-52385460D01*
X123830613Y-52874264D01*
X124097468Y-52972927D01*
X125070395Y-52000000D01*
X125429605Y-52000000D01*
X126402532Y-52972927D01*
X126669387Y-52874264D01*
X126895908Y-52264539D01*
X126876331Y-51735461D01*
X130104092Y-51735461D01*
X130128144Y-52385460D01*
X130330613Y-52874264D01*
X130597468Y-52972927D01*
X131570395Y-52000000D01*
X131929605Y-52000000D01*
X132902532Y-52972927D01*
X133169387Y-52874264D01*
X133395908Y-52264539D01*
X133371856Y-51614540D01*
X133169387Y-51125736D01*
X132902532Y-51027073D01*
X131929605Y-52000000D01*
X131570395Y-52000000D01*
X130597468Y-51027073D01*
X130330613Y-51125736D01*
X130104092Y-51735461D01*
X126876331Y-51735461D01*
X126871856Y-51614540D01*
X126669387Y-51125736D01*
X126402532Y-51027073D01*
X125429605Y-52000000D01*
X125070395Y-52000000D01*
X124097468Y-51027073D01*
X123830613Y-51125736D01*
X123604092Y-51735461D01*
X123210000Y-51735461D01*
X123210000Y-51069930D01*
X123244926Y-50894345D01*
X123304774Y-50804775D01*
X123394345Y-50744926D01*
X123569930Y-50710000D01*
X124327898Y-50710000D01*
X124277073Y-50847468D01*
X124277073Y-50847468D01*
G37*
X124277073Y-50847468D02*
X125250000Y-51820395D01*
X126222927Y-50847468D01*
X126172102Y-50710000D01*
X130827898Y-50710000D01*
X130777073Y-50847468D01*
X131750000Y-51820395D01*
X132722927Y-50847468D01*
X132672102Y-50710000D01*
X186430070Y-50710000D01*
X186605655Y-50744926D01*
X186695225Y-50804774D01*
X186755074Y-50894345D01*
X186790000Y-51069930D01*
X186790000Y-98104991D01*
X186622755Y-98104845D01*
X186293686Y-98240814D01*
X186041698Y-98492361D01*
X185931078Y-98758764D01*
X185874842Y-98815000D01*
X172650753Y-98815000D01*
X172758302Y-98707639D01*
X172894844Y-98378808D01*
X172895155Y-98022755D01*
X172759186Y-97693686D01*
X172507639Y-97441698D01*
X172178808Y-97305156D01*
X171822755Y-97304845D01*
X171493686Y-97440814D01*
X171241698Y-97692361D01*
X171131078Y-97958764D01*
X170274842Y-98815000D01*
X156396769Y-98815000D01*
X156494844Y-98578808D01*
X156495155Y-98222755D01*
X156359186Y-97893686D01*
X156107639Y-97641698D01*
X155778808Y-97505156D01*
X155422755Y-97504845D01*
X155093686Y-97640814D01*
X154841698Y-97892361D01*
X154731078Y-98158764D01*
X154074842Y-98815000D01*
X144625158Y-98815000D01*
X142507598Y-96697440D01*
X142742238Y-96697440D01*
X142783851Y-96725245D01*
X143084258Y-96785000D01*
X143306657Y-96785000D01*
X143571192Y-96894844D01*
X143927245Y-96895155D01*
X144256314Y-96759186D01*
X144401909Y-96613846D01*
X144573691Y-96685000D01*
X146164250Y-96685000D01*
X146323000Y-96526250D01*
X146323000Y-95377000D01*
X146577000Y-95377000D01*
X146577000Y-96526250D01*
X146735750Y-96685000D01*
X148326309Y-96685000D01*
X148559698Y-96588327D01*
X148738327Y-96409699D01*
X148835000Y-96176310D01*
X148835000Y-95535750D01*
X148676250Y-95377000D01*
X146577000Y-95377000D01*
X146323000Y-95377000D01*
X146303000Y-95377000D01*
X146303000Y-95123000D01*
X146323000Y-95123000D01*
X146323000Y-93973750D01*
X146577000Y-93973750D01*
X146577000Y-95123000D01*
X148676250Y-95123000D01*
X148835000Y-94964250D01*
X148835000Y-94323690D01*
X148738327Y-94090301D01*
X148559698Y-93911673D01*
X148326309Y-93815000D01*
X146735750Y-93815000D01*
X146577000Y-93973750D01*
X146323000Y-93973750D01*
X146164250Y-93815000D01*
X145885158Y-93815000D01*
X147124101Y-92576057D01*
X158310846Y-92576057D01*
X158445903Y-92902920D01*
X158477500Y-92934572D01*
X158477500Y-94265100D01*
X158446782Y-94295764D01*
X158311154Y-94622391D01*
X158310846Y-94976057D01*
X158445903Y-95302920D01*
X158695764Y-95553218D01*
X159022391Y-95688846D01*
X159376057Y-95689154D01*
X159702920Y-95554097D01*
X159953218Y-95304236D01*
X160088846Y-94977609D01*
X160089154Y-94623943D01*
X159954097Y-94297080D01*
X159922500Y-94265428D01*
X159922500Y-92934900D01*
X159953218Y-92904236D01*
X160088846Y-92577609D01*
X160089154Y-92223943D01*
X159954097Y-91897080D01*
X159704236Y-91646782D01*
X159377609Y-91511154D01*
X159023943Y-91510846D01*
X158697080Y-91645903D01*
X158446782Y-91895764D01*
X158311154Y-92222391D01*
X158310846Y-92576057D01*
X147124101Y-92576057D01*
X156324101Y-83376057D01*
X163710846Y-83376057D01*
X163845903Y-83702920D01*
X164095764Y-83953218D01*
X164422391Y-84088846D01*
X164467115Y-84088885D01*
X175889115Y-95510885D01*
X176123511Y-95667503D01*
X176400000Y-95722500D01*
X183065100Y-95722500D01*
X183095764Y-95753218D01*
X183422391Y-95888846D01*
X183776057Y-95889154D01*
X184102920Y-95754097D01*
X184353218Y-95504236D01*
X184488846Y-95177609D01*
X184489154Y-94823943D01*
X184354097Y-94497080D01*
X184104236Y-94246782D01*
X183777609Y-94111154D01*
X183423943Y-94110846D01*
X183097080Y-94245903D01*
X183065428Y-94277500D01*
X176699270Y-94277500D01*
X165489116Y-83067346D01*
X165489154Y-83023943D01*
X165354097Y-82697080D01*
X165104236Y-82446782D01*
X164777609Y-82311154D01*
X164423943Y-82310846D01*
X164097080Y-82445903D01*
X163846782Y-82695764D01*
X163711154Y-83022391D01*
X163710846Y-83376057D01*
X156324101Y-83376057D01*
X161753082Y-77947076D01*
X162090000Y-78014093D01*
X162658285Y-77901054D01*
X163140054Y-77579147D01*
X163367702Y-77238447D01*
X163434817Y-77381358D01*
X163863076Y-77771645D01*
X164273110Y-77941476D01*
X164503000Y-77820155D01*
X164503000Y-76627000D01*
X164483000Y-76627000D01*
X164483000Y-76373000D01*
X164503000Y-76373000D01*
X164503000Y-75179845D01*
X164273110Y-75058524D01*
X163863076Y-75228355D01*
X163434817Y-75618642D01*
X163367702Y-75761553D01*
X163140054Y-75420853D01*
X162658285Y-75098946D01*
X162090000Y-74985907D01*
X161521715Y-75098946D01*
X161039946Y-75420853D01*
X160718039Y-75902622D01*
X160605000Y-76470907D01*
X160605000Y-76529093D01*
X160662363Y-76817479D01*
X148547440Y-88932402D01*
X148547440Y-85350000D01*
X148503162Y-85114683D01*
X148364090Y-84898559D01*
X148151890Y-84753569D01*
X147900000Y-84702560D01*
X145900000Y-84702560D01*
X145664683Y-84746838D01*
X145448559Y-84885910D01*
X145303569Y-85098110D01*
X145252560Y-85350000D01*
X145252560Y-89150000D01*
X145296838Y-89385317D01*
X145435910Y-89601441D01*
X145648110Y-89746431D01*
X145900000Y-89797440D01*
X147682402Y-89797440D01*
X143349129Y-94130713D01*
X143264090Y-93998559D01*
X143051890Y-93853569D01*
X142800000Y-93802560D01*
X141835000Y-93802560D01*
X141835000Y-92701394D01*
X143082668Y-91453726D01*
X143252833Y-91199054D01*
X143252834Y-91199053D01*
X143312589Y-90898647D01*
X143312589Y-87877589D01*
X143252834Y-87577183D01*
X143082668Y-87322510D01*
X142455079Y-86694921D01*
X142247440Y-86556181D01*
X142247440Y-86500000D01*
X142203162Y-86264683D01*
X142096241Y-86098523D01*
X142196431Y-85951890D01*
X142247440Y-85700000D01*
X142247440Y-84200000D01*
X142203162Y-83964683D01*
X142064090Y-83748559D01*
X141851890Y-83603569D01*
X141600000Y-83552560D01*
X141541562Y-83552560D01*
X141605079Y-83489043D01*
X141775245Y-83234371D01*
X141835000Y-82933964D01*
X141835000Y-80447440D01*
X142800000Y-80447440D01*
X143035317Y-80403162D01*
X143251441Y-80264090D01*
X143396431Y-80051890D01*
X143447440Y-79800000D01*
X143447440Y-79285750D01*
X144065000Y-79285750D01*
X144065000Y-79926310D01*
X144161673Y-80159699D01*
X144340302Y-80338327D01*
X144573691Y-80435000D01*
X146164250Y-80435000D01*
X146323000Y-80276250D01*
X146323000Y-79127000D01*
X146577000Y-79127000D01*
X146577000Y-80276250D01*
X146735750Y-80435000D01*
X148326309Y-80435000D01*
X148559698Y-80338327D01*
X148738327Y-80159699D01*
X148835000Y-79926310D01*
X148835000Y-79285750D01*
X148676250Y-79127000D01*
X146577000Y-79127000D01*
X146323000Y-79127000D01*
X144223750Y-79127000D01*
X144065000Y-79285750D01*
X143447440Y-79285750D01*
X143447440Y-78200000D01*
X143423674Y-78073690D01*
X144065000Y-78073690D01*
X144065000Y-78714250D01*
X144223750Y-78873000D01*
X146323000Y-78873000D01*
X146323000Y-77723750D01*
X146577000Y-77723750D01*
X146577000Y-78873000D01*
X148676250Y-78873000D01*
X148835000Y-78714250D01*
X148835000Y-78073690D01*
X148738327Y-77840301D01*
X148559698Y-77661673D01*
X148326309Y-77565000D01*
X146735750Y-77565000D01*
X146577000Y-77723750D01*
X146323000Y-77723750D01*
X146164250Y-77565000D01*
X144573691Y-77565000D01*
X144340302Y-77661673D01*
X144161673Y-77840301D01*
X144065000Y-78073690D01*
X143423674Y-78073690D01*
X143403162Y-77964683D01*
X143264090Y-77748559D01*
X143051890Y-77603569D01*
X142800000Y-77552560D01*
X139300000Y-77552560D01*
X139064683Y-77596838D01*
X138848559Y-77735910D01*
X138703569Y-77948110D01*
X138652560Y-78200000D01*
X138652560Y-78215000D01*
X135250000Y-78215000D01*
X134949593Y-78274755D01*
X134694921Y-78444921D01*
X134535000Y-78604842D01*
X134535000Y-65085750D01*
X138965000Y-65085750D01*
X138965000Y-65676310D01*
X139061673Y-65909699D01*
X139240302Y-66088327D01*
X139473691Y-66185000D01*
X140314250Y-66185000D01*
X140473000Y-66026250D01*
X140473000Y-64927000D01*
X139123750Y-64927000D01*
X138965000Y-65085750D01*
X134535000Y-65085750D01*
X134535000Y-57825158D01*
X137075158Y-55285000D01*
X138652560Y-55285000D01*
X138652560Y-55300000D01*
X138696838Y-55535317D01*
X138835910Y-55751441D01*
X139048110Y-55896431D01*
X139300000Y-55947440D01*
X140265000Y-55947440D01*
X140265000Y-57803361D01*
X140044921Y-58023440D01*
X139874755Y-58278112D01*
X139864468Y-58329827D01*
X139815000Y-58578519D01*
X139815000Y-58802560D01*
X139600000Y-58802560D01*
X139364683Y-58846838D01*
X139148559Y-58985910D01*
X139003569Y-59198110D01*
X138952560Y-59450000D01*
X138952560Y-60950000D01*
X138996838Y-61185317D01*
X139103759Y-61351477D01*
X139003569Y-61498110D01*
X138952560Y-61750000D01*
X138952560Y-63250000D01*
X138996838Y-63485317D01*
X139102482Y-63649492D01*
X139061673Y-63690301D01*
X138965000Y-63923690D01*
X138965000Y-64514250D01*
X139123750Y-64673000D01*
X140473000Y-64673000D01*
X140473000Y-64653000D01*
X140727000Y-64653000D01*
X140727000Y-64673000D01*
X140747000Y-64673000D01*
X140747000Y-64927000D01*
X140727000Y-64927000D01*
X140727000Y-66026250D01*
X140885750Y-66185000D01*
X141393763Y-66185000D01*
X140494921Y-67083842D01*
X140324755Y-67338514D01*
X140278749Y-67569800D01*
X140265000Y-67638921D01*
X140265000Y-69302560D01*
X139300000Y-69302560D01*
X139064683Y-69346838D01*
X138848559Y-69485910D01*
X138703569Y-69698110D01*
X138652560Y-69950000D01*
X138652560Y-71550000D01*
X138696838Y-71785317D01*
X138835910Y-72001441D01*
X139048110Y-72146431D01*
X139300000Y-72197440D01*
X142800000Y-72197440D01*
X143035317Y-72153162D01*
X143251441Y-72014090D01*
X143396431Y-71801890D01*
X143447440Y-71550000D01*
X143447440Y-71516747D01*
X143656085Y-71475245D01*
X143910757Y-71305079D01*
X144065000Y-71150836D01*
X144065000Y-71676310D01*
X144161673Y-71909699D01*
X144340302Y-72088327D01*
X144573691Y-72185000D01*
X146164250Y-72185000D01*
X146323000Y-72026250D01*
X146323000Y-70877000D01*
X146577000Y-70877000D01*
X146577000Y-72026250D01*
X146735750Y-72185000D01*
X148326309Y-72185000D01*
X148559698Y-72088327D01*
X148738327Y-71909699D01*
X148835000Y-71676310D01*
X148835000Y-71035750D01*
X148676250Y-70877000D01*
X146577000Y-70877000D01*
X146323000Y-70877000D01*
X146303000Y-70877000D01*
X146303000Y-70623000D01*
X146323000Y-70623000D01*
X146323000Y-69473750D01*
X146577000Y-69473750D01*
X146577000Y-70623000D01*
X148676250Y-70623000D01*
X148835000Y-70464250D01*
X148835000Y-69823690D01*
X148738327Y-69590301D01*
X148559698Y-69411673D01*
X148326309Y-69315000D01*
X146735750Y-69315000D01*
X146577000Y-69473750D01*
X146323000Y-69473750D01*
X146164250Y-69315000D01*
X145900836Y-69315000D01*
X152150836Y-63065000D01*
X157468033Y-63065000D01*
X157361154Y-63322391D01*
X157360846Y-63676057D01*
X157495903Y-64002920D01*
X157527500Y-64034572D01*
X157527500Y-67580000D01*
X157582497Y-67856489D01*
X157739115Y-68090885D01*
X164803523Y-75155293D01*
X164757000Y-75179845D01*
X164757000Y-76373000D01*
X164777000Y-76373000D01*
X164777000Y-76627000D01*
X164757000Y-76627000D01*
X164757000Y-77820155D01*
X164986890Y-77941476D01*
X165396924Y-77771645D01*
X165825183Y-77381358D01*
X165892298Y-77238447D01*
X166119946Y-77579147D01*
X166601715Y-77901054D01*
X167170000Y-78014093D01*
X167738285Y-77901054D01*
X168220054Y-77579147D01*
X168440000Y-77249974D01*
X168659946Y-77579147D01*
X169141715Y-77901054D01*
X169710000Y-78014093D01*
X170120642Y-77932411D01*
X171058066Y-78869835D01*
X171058068Y-78869838D01*
X171292464Y-79026456D01*
X171338337Y-79035581D01*
X171568953Y-79081454D01*
X171568958Y-79081453D01*
X181047603Y-79081453D01*
X181324092Y-79026456D01*
X181558488Y-78869838D01*
X182605782Y-77822543D01*
X182605785Y-77822541D01*
X182762403Y-77588145D01*
X182771528Y-77542272D01*
X182817401Y-77311656D01*
X182817400Y-77311651D01*
X182817400Y-64327925D01*
X182762403Y-64051436D01*
X182605785Y-63817040D01*
X176580830Y-57792085D01*
X176346434Y-57635467D01*
X176069945Y-57580470D01*
X174485907Y-57580470D01*
X174533268Y-57466413D01*
X174533731Y-56935914D01*
X174331146Y-56445620D01*
X173956353Y-56070173D01*
X173466413Y-55866732D01*
X172976462Y-55866304D01*
X172285000Y-55174842D01*
X172285000Y-53756250D01*
X172550054Y-53579147D01*
X172579403Y-53535223D01*
X172651673Y-53709698D01*
X172830301Y-53888327D01*
X173063690Y-53985000D01*
X173754250Y-53985000D01*
X173913000Y-53826250D01*
X173913000Y-52627000D01*
X174167000Y-52627000D01*
X174167000Y-53826250D01*
X174325750Y-53985000D01*
X175016310Y-53985000D01*
X175249699Y-53888327D01*
X175428327Y-53709698D01*
X175525000Y-53476309D01*
X175525000Y-52785750D01*
X175366250Y-52627000D01*
X174167000Y-52627000D01*
X173913000Y-52627000D01*
X173893000Y-52627000D01*
X173893000Y-52373000D01*
X173913000Y-52373000D01*
X173913000Y-51173750D01*
X174167000Y-51173750D01*
X174167000Y-52373000D01*
X175366250Y-52373000D01*
X175525000Y-52214250D01*
X175525000Y-51523691D01*
X175428327Y-51290302D01*
X175249699Y-51111673D01*
X175016310Y-51015000D01*
X174325750Y-51015000D01*
X174167000Y-51173750D01*
X173913000Y-51173750D01*
X173754250Y-51015000D01*
X173063690Y-51015000D01*
X172830301Y-51111673D01*
X172651673Y-51290302D01*
X172579403Y-51464777D01*
X172550054Y-51420853D01*
X172068285Y-51098946D01*
X171500000Y-50985907D01*
X170931715Y-51098946D01*
X170449946Y-51420853D01*
X170230000Y-51750026D01*
X170010054Y-51420853D01*
X169528285Y-51098946D01*
X168960000Y-50985907D01*
X168391715Y-51098946D01*
X167909946Y-51420853D01*
X167690000Y-51750026D01*
X167470054Y-51420853D01*
X166988285Y-51098946D01*
X166420000Y-50985907D01*
X165851715Y-51098946D01*
X165369946Y-51420853D01*
X165048039Y-51902622D01*
X164935000Y-52470907D01*
X164935000Y-52529093D01*
X165007028Y-52891202D01*
X164452669Y-53445562D01*
X164254236Y-53246782D01*
X163927609Y-53111154D01*
X163833427Y-53111072D01*
X163888846Y-52977609D01*
X163889154Y-52623943D01*
X163754097Y-52297080D01*
X163504236Y-52046782D01*
X163177609Y-51911154D01*
X162823943Y-51910846D01*
X162497080Y-52045903D01*
X162246782Y-52295764D01*
X162111154Y-52622391D01*
X162110846Y-52976057D01*
X162245903Y-53302920D01*
X162277500Y-53334572D01*
X162277500Y-59600000D01*
X162332497Y-59876489D01*
X162489115Y-60110885D01*
X163873231Y-61495000D01*
X151825678Y-61495000D01*
X151525272Y-61554755D01*
X151270599Y-61724921D01*
X148535231Y-64460289D01*
X148547440Y-64400000D01*
X148547440Y-60600000D01*
X148503162Y-60364683D01*
X148364090Y-60148559D01*
X148151890Y-60003569D01*
X147900000Y-59952560D01*
X145900000Y-59952560D01*
X145664683Y-59996838D01*
X145448559Y-60135910D01*
X145303569Y-60348110D01*
X145252560Y-60600000D01*
X145252560Y-64400000D01*
X145296838Y-64635317D01*
X145435910Y-64851441D01*
X145648110Y-64996431D01*
X145900000Y-65047440D01*
X147900000Y-65047440D01*
X147959224Y-65036296D01*
X143355267Y-69640253D01*
X143264090Y-69498559D01*
X143051890Y-69353569D01*
X142800000Y-69302560D01*
X141835000Y-69302560D01*
X141835000Y-67964079D01*
X143493007Y-66306072D01*
X143663173Y-66051400D01*
X143722928Y-65750993D01*
X143722928Y-63288244D01*
X143676548Y-63055079D01*
X143663173Y-62987837D01*
X143493007Y-62733165D01*
X142704763Y-61944921D01*
X142450091Y-61774755D01*
X142244399Y-61733840D01*
X142203162Y-61514683D01*
X142096241Y-61348523D01*
X142196431Y-61201890D01*
X142247440Y-60950000D01*
X142247440Y-59450000D01*
X142203162Y-59214683D01*
X142064090Y-58998559D01*
X141851890Y-58853569D01*
X141600000Y-58802560D01*
X141486117Y-58802560D01*
X141605079Y-58683598D01*
X141775245Y-58428926D01*
X141835000Y-58128519D01*
X141835000Y-55947440D01*
X142800000Y-55947440D01*
X143035317Y-55903162D01*
X143251441Y-55764090D01*
X143396431Y-55551890D01*
X143447440Y-55300000D01*
X143447440Y-54785750D01*
X144065000Y-54785750D01*
X144065000Y-55426310D01*
X144161673Y-55659699D01*
X144340302Y-55838327D01*
X144573691Y-55935000D01*
X146164250Y-55935000D01*
X146323000Y-55776250D01*
X146323000Y-54627000D01*
X146577000Y-54627000D01*
X146577000Y-55776250D01*
X146735750Y-55935000D01*
X148326309Y-55935000D01*
X148559698Y-55838327D01*
X148738327Y-55659699D01*
X148835000Y-55426310D01*
X148835000Y-54785750D01*
X148676250Y-54627000D01*
X146577000Y-54627000D01*
X146323000Y-54627000D01*
X144223750Y-54627000D01*
X144065000Y-54785750D01*
X143447440Y-54785750D01*
X143447440Y-53700000D01*
X143423674Y-53573690D01*
X144065000Y-53573690D01*
X144065000Y-54214250D01*
X144223750Y-54373000D01*
X146323000Y-54373000D01*
X146323000Y-53223750D01*
X146577000Y-53223750D01*
X146577000Y-54373000D01*
X148676250Y-54373000D01*
X148835000Y-54214250D01*
X148835000Y-53573690D01*
X148738327Y-53340301D01*
X148559698Y-53161673D01*
X148326309Y-53065000D01*
X146735750Y-53065000D01*
X146577000Y-53223750D01*
X146323000Y-53223750D01*
X146164250Y-53065000D01*
X144573691Y-53065000D01*
X144340302Y-53161673D01*
X144161673Y-53340301D01*
X144065000Y-53573690D01*
X143423674Y-53573690D01*
X143403162Y-53464683D01*
X143264090Y-53248559D01*
X143051890Y-53103569D01*
X142800000Y-53052560D01*
X139300000Y-53052560D01*
X139064683Y-53096838D01*
X138848559Y-53235910D01*
X138703569Y-53448110D01*
X138652560Y-53700000D01*
X138652560Y-53715000D01*
X136750000Y-53715000D01*
X136449594Y-53774755D01*
X136194921Y-53944921D01*
X133384779Y-56755063D01*
X133385284Y-56176205D01*
X133136894Y-55575057D01*
X132677363Y-55114722D01*
X132076648Y-54865284D01*
X131426205Y-54864716D01*
X130825057Y-55113106D01*
X130364722Y-55572637D01*
X130115284Y-56173352D01*
X130114716Y-56823795D01*
X130363106Y-57424943D01*
X130822637Y-57885278D01*
X131423352Y-58134716D01*
X132073795Y-58135284D01*
X132674943Y-57886894D01*
X132965000Y-57597344D01*
X132965000Y-82671016D01*
X129085000Y-86551016D01*
X129085000Y-86035750D01*
X128926250Y-85877000D01*
X127377000Y-85877000D01*
X127377000Y-85897000D01*
X127123000Y-85897000D01*
X127123000Y-85877000D01*
X125573750Y-85877000D01*
X125415000Y-86035750D01*
X125415000Y-87076309D01*
X125511673Y-87309698D01*
X125690301Y-87488327D01*
X125923690Y-87585000D01*
X126474395Y-87585000D01*
X126211914Y-87693455D01*
X125695270Y-88209199D01*
X125415319Y-88883395D01*
X125414682Y-89613403D01*
X125693455Y-90288086D01*
X126209199Y-90804730D01*
X126883395Y-91084681D01*
X127613403Y-91085318D01*
X128288086Y-90806545D01*
X128804730Y-90290801D01*
X128993683Y-89835750D01*
X138965000Y-89835750D01*
X138965000Y-90426310D01*
X139061673Y-90659699D01*
X139240302Y-90838327D01*
X139473691Y-90935000D01*
X140314250Y-90935000D01*
X140473000Y-90776250D01*
X140473000Y-89677000D01*
X139123750Y-89677000D01*
X138965000Y-89835750D01*
X128993683Y-89835750D01*
X129084681Y-89616605D01*
X129085318Y-88886597D01*
X129051524Y-88804808D01*
X134305079Y-83551253D01*
X134475245Y-83296581D01*
X134535000Y-82996174D01*
X134535000Y-80825158D01*
X135575158Y-79785000D01*
X138652560Y-79785000D01*
X138652560Y-79800000D01*
X138696838Y-80035317D01*
X138835910Y-80251441D01*
X139048110Y-80396431D01*
X139300000Y-80447440D01*
X140265000Y-80447440D01*
X140265000Y-82608806D01*
X140044921Y-82828885D01*
X139874755Y-83083557D01*
X139874755Y-83083558D01*
X139815000Y-83383964D01*
X139815000Y-83552560D01*
X139600000Y-83552560D01*
X139364683Y-83596838D01*
X139148559Y-83735910D01*
X139003569Y-83948110D01*
X138952560Y-84200000D01*
X138952560Y-85700000D01*
X138996838Y-85935317D01*
X139103759Y-86101477D01*
X139003569Y-86248110D01*
X138952560Y-86500000D01*
X138952560Y-88000000D01*
X138996838Y-88235317D01*
X139102482Y-88399492D01*
X139061673Y-88440301D01*
X138965000Y-88673690D01*
X138965000Y-89264250D01*
X139123750Y-89423000D01*
X140473000Y-89423000D01*
X140473000Y-89403000D01*
X140727000Y-89403000D01*
X140727000Y-89423000D01*
X140747000Y-89423000D01*
X140747000Y-89677000D01*
X140727000Y-89677000D01*
X140727000Y-90776250D01*
X140885750Y-90935000D01*
X141381078Y-90935000D01*
X140494921Y-91821157D01*
X140324755Y-92075829D01*
X140295602Y-92222391D01*
X140265000Y-92376236D01*
X140265000Y-93802560D01*
X139300000Y-93802560D01*
X139064683Y-93846838D01*
X138848559Y-93985910D01*
X138703569Y-94198110D01*
X138652560Y-94450000D01*
X138652560Y-94524165D01*
X138649594Y-94524755D01*
X138394921Y-94694921D01*
X138394919Y-94694924D01*
X138158411Y-94931431D01*
X137893686Y-95040814D01*
X137641698Y-95292361D01*
X137505156Y-95621192D01*
X137504845Y-95977245D01*
X137640814Y-96306314D01*
X137892361Y-96558302D01*
X138221192Y-96694844D01*
X138577245Y-96695155D01*
X138906314Y-96559186D01*
X138912047Y-96553463D01*
X139048110Y-96646431D01*
X139300000Y-96697440D01*
X140356181Y-96697440D01*
X140494921Y-96905079D01*
X143744921Y-100155079D01*
X143999593Y-100325245D01*
X144300000Y-100385000D01*
X186200000Y-100385000D01*
X186500407Y-100325245D01*
X186755079Y-100155079D01*
X186790000Y-100120158D01*
X186790000Y-108930070D01*
X186755074Y-109105655D01*
X186695225Y-109195226D01*
X186605655Y-109255074D01*
X186430070Y-109290000D01*
X185957005Y-109290000D01*
X186024794Y-109126745D01*
X186025206Y-108655323D01*
X185845180Y-108219628D01*
X185512125Y-107885991D01*
X185465189Y-107866502D01*
X185497514Y-107860072D01*
X186027781Y-107505759D01*
X186382094Y-106975492D01*
X186506512Y-106350000D01*
X186382094Y-105724508D01*
X186027781Y-105194241D01*
X185497514Y-104839928D01*
X184872022Y-104715510D01*
X184807978Y-104715510D01*
X184182486Y-104839928D01*
X183862923Y-105053453D01*
X183763580Y-104899069D01*
X183551380Y-104754079D01*
X183299490Y-104703070D01*
X181300510Y-104703070D01*
X181065193Y-104747348D01*
X180849069Y-104886420D01*
X180704079Y-105098620D01*
X180653070Y-105350510D01*
X180653070Y-107349490D01*
X180697348Y-107584807D01*
X180836420Y-107800931D01*
X181048620Y-107945921D01*
X181300510Y-107996930D01*
X181517322Y-107996930D01*
X181295991Y-108217875D01*
X181115206Y-108653255D01*
X181114794Y-109124677D01*
X181183104Y-109290000D01*
X177817005Y-109290000D01*
X177884794Y-109126745D01*
X177885206Y-108655323D01*
X177705180Y-108219628D01*
X177372125Y-107885991D01*
X177325189Y-107866502D01*
X177357514Y-107860072D01*
X177887781Y-107505759D01*
X178242094Y-106975492D01*
X178366512Y-106350000D01*
X178242094Y-105724508D01*
X177887781Y-105194241D01*
X177357514Y-104839928D01*
X176732022Y-104715510D01*
X176667978Y-104715510D01*
X176042486Y-104839928D01*
X175722923Y-105053453D01*
X175623580Y-104899069D01*
X175411380Y-104754079D01*
X175159490Y-104703070D01*
X173160510Y-104703070D01*
X172925193Y-104747348D01*
X172709069Y-104886420D01*
X172564079Y-105098620D01*
X172513070Y-105350510D01*
X172513070Y-107349490D01*
X172557348Y-107584807D01*
X172696420Y-107800931D01*
X172908620Y-107945921D01*
X173160510Y-107996930D01*
X173377322Y-107996930D01*
X173155991Y-108217875D01*
X172975206Y-108653255D01*
X172974794Y-109124677D01*
X173043104Y-109290000D01*
X169957005Y-109290000D01*
X170024794Y-109126745D01*
X170025206Y-108655323D01*
X169845180Y-108219628D01*
X169512125Y-107885991D01*
X169465189Y-107866502D01*
X169497514Y-107860072D01*
X170027781Y-107505759D01*
X170382094Y-106975492D01*
X170506512Y-106350000D01*
X170382094Y-105724508D01*
X170027781Y-105194241D01*
X169497514Y-104839928D01*
X168872022Y-104715510D01*
X168807978Y-104715510D01*
X168182486Y-104839928D01*
X167862923Y-105053453D01*
X167763580Y-104899069D01*
X167551380Y-104754079D01*
X167299490Y-104703070D01*
X165300510Y-104703070D01*
X165065193Y-104747348D01*
X164849069Y-104886420D01*
X164704079Y-105098620D01*
X164653070Y-105350510D01*
X164653070Y-107349490D01*
X164697348Y-107584807D01*
X164836420Y-107800931D01*
X165048620Y-107945921D01*
X165300510Y-107996930D01*
X165517322Y-107996930D01*
X165295991Y-108217875D01*
X165115206Y-108653255D01*
X165114794Y-109124677D01*
X165183104Y-109290000D01*
X161957005Y-109290000D01*
X162024794Y-109126745D01*
X162025206Y-108655323D01*
X161845180Y-108219628D01*
X161512125Y-107885991D01*
X161465189Y-107866502D01*
X161497514Y-107860072D01*
X162027781Y-107505759D01*
X162382094Y-106975492D01*
X162506512Y-106350000D01*
X162382094Y-105724508D01*
X162027781Y-105194241D01*
X161497514Y-104839928D01*
X160872022Y-104715510D01*
X160807978Y-104715510D01*
X160182486Y-104839928D01*
X159862923Y-105053453D01*
X159763580Y-104899069D01*
X159551380Y-104754079D01*
X159299490Y-104703070D01*
X157300510Y-104703070D01*
X157065193Y-104747348D01*
X156849069Y-104886420D01*
X156704079Y-105098620D01*
X156653070Y-105350510D01*
X156653070Y-107349490D01*
X156697348Y-107584807D01*
X156836420Y-107800931D01*
X157048620Y-107945921D01*
X157300510Y-107996930D01*
X157517322Y-107996930D01*
X157295991Y-108217875D01*
X157115206Y-108653255D01*
X157114794Y-109124677D01*
X157183104Y-109290000D01*
X153957005Y-109290000D01*
X154024794Y-109126745D01*
X154025206Y-108655323D01*
X153845180Y-108219628D01*
X153512125Y-107885991D01*
X153465189Y-107866502D01*
X153497514Y-107860072D01*
X154027781Y-107505759D01*
X154382094Y-106975492D01*
X154506512Y-106350000D01*
X154382094Y-105724508D01*
X154027781Y-105194241D01*
X153497514Y-104839928D01*
X152872022Y-104715510D01*
X152807978Y-104715510D01*
X152182486Y-104839928D01*
X151862923Y-105053453D01*
X151763580Y-104899069D01*
X151551380Y-104754079D01*
X151299490Y-104703070D01*
X149300510Y-104703070D01*
X149065193Y-104747348D01*
X148849069Y-104886420D01*
X148704079Y-105098620D01*
X148653070Y-105350510D01*
X148653070Y-107349490D01*
X148697348Y-107584807D01*
X148836420Y-107800931D01*
X149048620Y-107945921D01*
X149300510Y-107996930D01*
X149517322Y-107996930D01*
X149295991Y-108217875D01*
X149115206Y-108653255D01*
X149114794Y-109124677D01*
X149183104Y-109290000D01*
X145957005Y-109290000D01*
X146024794Y-109126745D01*
X146025206Y-108655323D01*
X145845180Y-108219628D01*
X145512125Y-107885991D01*
X145465189Y-107866502D01*
X145497514Y-107860072D01*
X146027781Y-107505759D01*
X146382094Y-106975492D01*
X146506512Y-106350000D01*
X146382094Y-105724508D01*
X146027781Y-105194241D01*
X145497514Y-104839928D01*
X144872022Y-104715510D01*
X144807978Y-104715510D01*
X144182486Y-104839928D01*
X143862923Y-105053453D01*
X143763580Y-104899069D01*
X143551380Y-104754079D01*
X143299490Y-104703070D01*
X141300510Y-104703070D01*
X141065193Y-104747348D01*
X140849069Y-104886420D01*
X140704079Y-105098620D01*
X140653070Y-105350510D01*
X140653070Y-107349490D01*
X140697348Y-107584807D01*
X140836420Y-107800931D01*
X141048620Y-107945921D01*
X141300510Y-107996930D01*
X141517322Y-107996930D01*
X141295991Y-108217875D01*
X141115206Y-108653255D01*
X141114794Y-109124677D01*
X141183104Y-109290000D01*
X137817005Y-109290000D01*
X137884794Y-109126745D01*
X137885206Y-108655323D01*
X137705180Y-108219628D01*
X137372125Y-107885991D01*
X137325189Y-107866502D01*
X137357514Y-107860072D01*
X137887781Y-107505759D01*
X138242094Y-106975492D01*
X138366512Y-106350000D01*
X138242094Y-105724508D01*
X137887781Y-105194241D01*
X137357514Y-104839928D01*
X136732022Y-104715510D01*
X136667978Y-104715510D01*
X136042486Y-104839928D01*
X135722923Y-105053453D01*
X135623580Y-104899069D01*
X135411380Y-104754079D01*
X135159490Y-104703070D01*
X133160510Y-104703070D01*
X132925193Y-104747348D01*
X132709069Y-104886420D01*
X132564079Y-105098620D01*
X132513070Y-105350510D01*
X132513070Y-107349490D01*
X132557348Y-107584807D01*
X132696420Y-107800931D01*
X132908620Y-107945921D01*
X133160510Y-107996930D01*
X133377322Y-107996930D01*
X133155991Y-108217875D01*
X132975206Y-108653255D01*
X132974794Y-109124677D01*
X133043104Y-109290000D01*
X129757005Y-109290000D01*
X129824794Y-109126745D01*
X129825206Y-108655323D01*
X129645180Y-108219628D01*
X129312125Y-107885991D01*
X129265189Y-107866502D01*
X129297514Y-107860072D01*
X129827781Y-107505759D01*
X130182094Y-106975492D01*
X130306512Y-106350000D01*
X130182094Y-105724508D01*
X129827781Y-105194241D01*
X129297514Y-104839928D01*
X128672022Y-104715510D01*
X128607978Y-104715510D01*
X127982486Y-104839928D01*
X127662923Y-105053453D01*
X127563580Y-104899069D01*
X127351380Y-104754079D01*
X127099490Y-104703070D01*
X125100510Y-104703070D01*
X124865193Y-104747348D01*
X124649069Y-104886420D01*
X124504079Y-105098620D01*
X124453070Y-105350510D01*
X124453070Y-107349490D01*
X124497348Y-107584807D01*
X124636420Y-107800931D01*
X124848620Y-107945921D01*
X125100510Y-107996930D01*
X125317322Y-107996930D01*
X125095991Y-108217875D01*
X124915206Y-108653255D01*
X124914794Y-109124677D01*
X124983104Y-109290000D01*
X123569930Y-109290000D01*
X123394345Y-109255074D01*
X123304774Y-109195225D01*
X123244926Y-109105655D01*
X123210000Y-108930070D01*
X123210000Y-84423691D01*
X125415000Y-84423691D01*
X125415000Y-85464250D01*
X125573750Y-85623000D01*
X127123000Y-85623000D01*
X127123000Y-84073750D01*
X127377000Y-84073750D01*
X127377000Y-85623000D01*
X128926250Y-85623000D01*
X129085000Y-85464250D01*
X129085000Y-84423691D01*
X128988327Y-84190302D01*
X128809699Y-84011673D01*
X128576310Y-83915000D01*
X127535750Y-83915000D01*
X127377000Y-84073750D01*
X127123000Y-84073750D01*
X126964250Y-83915000D01*
X125923690Y-83915000D01*
X125690301Y-84011673D01*
X125511673Y-84190302D01*
X125415000Y-84423691D01*
X123210000Y-84423691D01*
X123210000Y-56823795D01*
X123614716Y-56823795D01*
X123863106Y-57424943D01*
X124322637Y-57885278D01*
X124923352Y-58134716D01*
X125573795Y-58135284D01*
X126174943Y-57886894D01*
X126635278Y-57427363D01*
X126884716Y-56826648D01*
X126885284Y-56176205D01*
X126636894Y-55575057D01*
X126177363Y-55114722D01*
X125576648Y-54865284D01*
X124926205Y-54864716D01*
X124325057Y-55113106D01*
X123864722Y-55572637D01*
X123615284Y-56173352D01*
X123614716Y-56823795D01*
X123210000Y-56823795D01*
X123210000Y-53152532D01*
X124277073Y-53152532D01*
X124375736Y-53419387D01*
X124985461Y-53645908D01*
X125635460Y-53621856D01*
X126124264Y-53419387D01*
X126222927Y-53152532D01*
X130777073Y-53152532D01*
X130875736Y-53419387D01*
X131485461Y-53645908D01*
X132135460Y-53621856D01*
X132624264Y-53419387D01*
X132722927Y-53152532D01*
X131750000Y-52179605D01*
X130777073Y-53152532D01*
X126222927Y-53152532D01*
X125250000Y-52179605D01*
X124277073Y-53152532D01*
X123210000Y-53152532D01*
X123210000Y-51735461D01*
X123604092Y-51735461D01*
X123628144Y-52385460D01*
X123830613Y-52874264D01*
X124097468Y-52972927D01*
X125070395Y-52000000D01*
X125429605Y-52000000D01*
X126402532Y-52972927D01*
X126669387Y-52874264D01*
X126895908Y-52264539D01*
X126876331Y-51735461D01*
X130104092Y-51735461D01*
X130128144Y-52385460D01*
X130330613Y-52874264D01*
X130597468Y-52972927D01*
X131570395Y-52000000D01*
X131929605Y-52000000D01*
X132902532Y-52972927D01*
X133169387Y-52874264D01*
X133395908Y-52264539D01*
X133371856Y-51614540D01*
X133169387Y-51125736D01*
X132902532Y-51027073D01*
X131929605Y-52000000D01*
X131570395Y-52000000D01*
X130597468Y-51027073D01*
X130330613Y-51125736D01*
X130104092Y-51735461D01*
X126876331Y-51735461D01*
X126871856Y-51614540D01*
X126669387Y-51125736D01*
X126402532Y-51027073D01*
X125429605Y-52000000D01*
X125070395Y-52000000D01*
X124097468Y-51027073D01*
X123830613Y-51125736D01*
X123604092Y-51735461D01*
X123210000Y-51735461D01*
X123210000Y-51069930D01*
X123244926Y-50894345D01*
X123304774Y-50804775D01*
X123394345Y-50744926D01*
X123569930Y-50710000D01*
X124327898Y-50710000D01*
X124277073Y-50847468D01*
G36*
X173393748Y-66385858D02*
X173379605Y-66400000D01*
X173393748Y-66414143D01*
X173214143Y-66593748D01*
X173200000Y-66579605D01*
X173185858Y-66593748D01*
X173006253Y-66414143D01*
X173020395Y-66400000D01*
X173006253Y-66385858D01*
X173185858Y-66206253D01*
X173200000Y-66220395D01*
X173214143Y-66206253D01*
X173393748Y-66385858D01*
X173393748Y-66385858D01*
G37*
X173393748Y-66385858D02*
X173379605Y-66400000D01*
X173393748Y-66414143D01*
X173214143Y-66593748D01*
X173200000Y-66579605D01*
X173185858Y-66593748D01*
X173006253Y-66414143D01*
X173020395Y-66400000D01*
X173006253Y-66385858D01*
X173185858Y-66206253D01*
X173200000Y-66220395D01*
X173214143Y-66206253D01*
X173393748Y-66385858D01*
M02*
